Multiplexador/simulation/qsim/multiplex.msim.vcd
$comment
	File created using the following command:
		vcd file multiplex.msim.vcd -direction
$end
$date
	Fri Oct 26 20:22:37 2018
$end
$version
	ModelSim Version 10.5b
$end
$timescale
	1ps
$end

$scope module multiplex_vhd_vec_tst $end
$var wire 1 ! entrada1 $end
$var wire 1 " entrada2 $end
$var wire 1 # entrada3 $end
$var wire 1 $ entrada4 $end
$var wire 1 % flag [1] $end
$var wire 1 & flag [0] $end
$var wire 1 ' saida $end

$scope module i1 $end
$var wire 1 ( gnd $end
$var wire 1 ) vcc $end
$var wire 1 * unknown $end
$var wire 1 + devoe $end
$var wire 1 , devclrn $end
$var wire 1 - devpor $end
$var wire 1 . ww_devoe $end
$var wire 1 / ww_devclrn $end
$var wire 1 0 ww_devpor $end
$var wire 1 1 ww_entrada1 $end
$var wire 1 2 ww_entrada2 $end
$var wire 1 3 ww_entrada3 $end
$var wire 1 4 ww_entrada4 $end
$var wire 1 5 ww_flag [1] $end
$var wire 1 6 ww_flag [0] $end
$var wire 1 7 ww_saida $end
$var wire 1 8 \saida~output_o\ $end
$var wire 1 9 \entrada1~input_o\ $end
$var wire 1 : \entrada2~input_o\ $end
$var wire 1 ; \entrada3~input_o\ $end
$var wire 1 < \entrada4~input_o\ $end
$var wire 1 = \flag[0]~input_o\ $end
$var wire 1 > \flag[1]~input_o\ $end
$var wire 1 ? \Mux0~0_combout\ $end
$var wire 1 @ \ALT_INV_entrada1~input_o\ $end
$var wire 1 A \ALT_INV_entrada2~input_o\ $end
$var wire 1 B \ALT_INV_entrada3~input_o\ $end
$var wire 1 C \ALT_INV_entrada4~input_o\ $end
$var wire 1 D \ALT_INV_flag[0]~input_o\ $end
$var wire 1 E \ALT_INV_flag[1]~input_o\ $end
$upscope $end
$upscope $end
$enddefinitions $end
#0
$dumpvars
0!
1"
0#
1$
0'
0(
1)
x*
1+
1,
1-
1.
1/
10
01
12
03
14
07
08
09
1:
0;
1<
0=
0>
0?
1@
0A
1B
0C
1D
1E
0%
0&
05
06
$end
#5000
1#
0$
1&
13
04
16
1=
0<
1;
0B
1C
0D
1?
18
17
1'
#10000
0#
1$
0&
1!
0"
1%
03
14
06
15
11
02
0:
19
1>
0=
1<
0;
1B
0C
1D
0E
0@
1A
0?
08
07
0'
#15000
1#
0$
1&
13
04
16
1=
0<
1;
0B
1C
0D
#20000
0#
1$
0&
0!
1"
0%
03
14
06
05
01
12
1:
09
0>
0=
1<
0;
1B
0C
1D
1E
1@
0A
#25000
1#
0$
1&
13
04
16
1=
0<
1;
0B
1C
0D
1?
18
17
1'
#30000
0#
1$
0&
1!
0"
1%
03
14
06
15
11
02
0:
19
1>
0=
1<
0;
1B
0C
1D
0E
0@
1A
0?
08
07
0'
#35000
1#
0$
1&
13
04
16
1=
0<
1;
0B
1C
0D
#40000
0#
1$
0&
0!
1"
0%
03
14
06
05
01
12
1:
09
0>
0=
1<
0;
1B
0C
1D
1E
1@
0A
#45000
1#
0$
1&
13
04
16
1=
0<
1;
0B
1C
0D
1?
18
17
1'
#50000
0#
1$
0&
1!
0"
1%
03
14
06
15
11
02
0:
19
1>
0=
1<
0;
1B
0C
1D
0E
0@
1A
0?
08
07
0'
#55000
1#
0$
1&
13
04
16
1=
0<
1;
0B
1C
0D
#60000
0#
1$
0&
0!
1"
0%
03
14
06
05
01
12
1:
09
0>
0=
1<
0;
1B
0C
1D
1E
1@
0A
#65000
1#
0$
1&
13
04
16
1=
0<
1;
0B
1C
0D
1?
18
17
1'
#70000
0#
1$
0&
1!
0"
1%
03
14
06
15
11
02
0:
19
1>
0=
1<
0;
1B
0C
1D
0E
0@
1A
0?
08
07
0'
#75000
1#
0$
1&
13
04
16
1=
0<
1;
0B
1C
0D
#80000
0#
1$
0&
0!
1"
0%
03
14
06
05
01
12
1:
09
0>
0=
1<
0;
1B
0C
1D
1E
1@
0A
#85000
1#
0$
1&
13
04
16
1=
0<
1;
0B
1C
0D
1?
18
17
1'
#90000
0#
1$
0&
1!
0"
1%
03
14
06
15
11
02
0:
19
1>
0=
1<
0;
1B
0C
1D
0E
0@
1A
0?
08
07
0'
#95000
1#
0$
1&
13
04
16
1=
0<
1;
0B
1C
0D
#100000
0#
1$
0&
0!
1"
0%
03
14
06
05
01
12
1:
09
0>
0=
1<
0;
1B
0C
1D
1E
1@
0A
#105000
1#
0$
1&
13
04
16
1=
0<
1;
0B
1C
0D
1?
18
17
1'
#110000
0#
1$
0&
1!
0"
1%
03
14
06
15
11
02
0:
19
1>
0=
1<
0;
1B
0C
1D
0E
0@
1A
0?
08
07
0'
#115000
1#
0$
1&
13
04
16
1=
0<
1;
0B
1C
0D
#120000
0#
1$
0&
0!
1"
0%
03
14
06
05
01
12
1:
09
0>
0=
1<
0;
1B
0C
1D
1E
1@
0A
#125000
1#
0$
1&
13
04
16
1=
0<
1;
0B
1C
0D
1?
18
17
1'
#130000
0#
1$
0&
1!
0"
1%
03
14
06
15
11
02
0:
19
1>
0=
1<
0;
1B
0C
1D
0E
0@
1A
0?
08
07
0'
#135000
1#
0$
1&
13
04
16
1=
0<
1;
0B
1C
0D
#140000
0#
1$
0&
0!
1"
0%
03
14
06
05
01
12
1:
09
0>
0=
1<
0;
1B
0C
1D
1E
1@
0A
#145000
1#
0$
1&
13
04
16
1=
0<
1;
0B
1C
0D
1?
18
17
1'
#150000
0#
1$
0&
1!
0"
1%
03
14
06
15
11
02
0:
19
1>
0=
1<
0;
1B
0C
1D
0E
0@
1A
0?
08
07
0'
#155000
1#
0$
1&
13
04
16
1=
0<
1;
0B
1C
0D
#160000
0#
1$
0&
0!
1"
0%
03
14
06
05
01
12
1:
09
0>
0=
1<
0;
1B
0C
1D
1E
1@
0A
#165000
1#
0$
1&
13
04
16
1=
0<
1;
0B
1C
0D
1?
18
17
1'
#170000
0#
1$
0&
1!
0"
1%
03
14
06
15
11
02
0:
19
1>
0=
1<
0;
1B
0C
1D
0E
0@
1A
0?
08
07
0'
#175000
1#
0$
1&
13
04
16
1=
0<
1;
0B
1C
0D
#180000
0#
1$
0&
0!
1"
0%
03
14
06
05
01
12
1:
09
0>
0=
1<
0;
1B
0C
1D
1E
1@
0A
#185000
1#
0$
1&
13
04
16
1=
0<
1;
0B
1C
0D
1?
18
17
1'
#190000
0#
1$
0&
1!
0"
1%
03
14
06
15
11
02
0:
19
1>
0=
1<
0;
1B
0C
1D
0E
0@
1A
0?
08
07
0'
#195000
1#
0$
1&
13
04
16
1=
0<
1;
0B
1C
0D
#200000
0#
1$
0&
0!
1"
0%
03
14
06
05
01
12
1:
09
0>
0=
1<
0;
1B
0C
1D
1E
1@
0A
#205000
1#
0$
1&
13
04
16
1=
0<
1;
0B
1C
0D
1?
18
17
1'
#210000
0#
1$
0&
1!
0"
1%
03
14
06
15
11
02
0:
19
1>
0=
1<
0;
1B
0C
1D
0E
0@
1A
0?
08
07
0'
#215000
1#
0$
1&
13
04
16
1=
0<
1;
0B
1C
0D
#220000
0#
1$
0&
0!
1"
0%
03
14
06
05
01
12
1:
09
0>
0=
1<
0;
1B
0C
1D
1E
1@
0A
#225000
1#
0$
1&
13
04
16
1=
0<
1;
0B
1C
0D
1?
18
17
1'
#230000
0#
1$
0&
1!
0"
1%
03
14
06
15
11
02
0:
19
1>
0=
1<
0;
1B
0C
1D
0E
0@
1A
0?
08
07
0'
#235000
1#
0$
1&
13
04
16
1=
0<
1;
0B
1C
0D
#240000
0#
1$
0&
0!
1"
0%
03
14
06
05
01
12
1:
09
0>
0=
1<
0;
1B
0C
1D
1E
1@
0A
#245000
1#
0$
1&
13
04
16
1=
0<
1;
0B
1C
0D
1?
18
17
1'
#250000
0#
1$
0&
1!
0"
1%
03
14
06
15
11
02
0:
19
1>
0=
1<
0;
1B
0C
1D
0E
0@
1A
0?
08
07
0'
#255000
1#
0$
1&
13
04
16
1=
0<
1;
0B
1C
0D
#260000
0#
1$
0&
0!
1"
0%
03
14
06
05
01
12
1:
09
0>
0=
1<
0;
1B
0C
1D
1E
1@
0A
#265000
1#
0$
1&
13
04
16
1=
0<
1;
0B
1C
0D
1?
18
17
1'
#270000
0#
1$
0&
1!
0"
1%
03
14
06
15
11
02
0:
19
1>
0=
1<
0;
1B
0C
1D
0E
0@
1A
0?
08
07
0'
#275000
1#
0$
1&
13
04
16
1=
0<
1;
0B
1C
0D
#280000
0#
1$
0&
0!
1"
0%
03
14
06
05
01
12
1:
09
0>
0=
1<
0;
1B
0C
1D
1E
1@
0A
#285000
1#
0$
1&
13
04
16
1=
0<
1;
0B
1C
0D
1?
18
17
1'
#290000
0#
1$
0&
1!
0"
1%
03
14
06
15
11
02
0:
19
1>
0=
1<
0;
1B
0C
1D
0E
0@
1A
0?
08
07
0'
#295000
1#
0$
1&
13
04
16
1=
0<
1;
0B
1C
0D
#300000
0#
1$
0&
0!
1"
0%
03
14
06
05
01
12
1:
09
0>
0=
1<
0;
1B
0C
1D
1E
1@
0A
#305000
1#
0$
1&
13
04
16
1=
0<
1;
0B
1C
0D
1?
18
17
1'
#310000
0#
1$
0&
1!
0"
1%
03
14
06
15
11
02
0:
19
1>
0=
1<
0;
1B
0C
1D
0E
0@
1A
0?
08
07
0'
#315000
1#
0$
1&
13
04
16
1=
0<
1;
0B
1C
0D
#320000
0#
1$
0&
0!
1"
0%
03
14
06
05
01
12
1:
09
0>
0=
1<
0;
1B
0C
1D
1E
1@
0A
#325000
1#
0$
1&
13
04
16
1=
0<
1;
0B
1C
0D
1?
18
17
1'
#330000
0#
1$
0&
1!
0"
1%
03
14
06
15
11
02
0:
19
1>
0=
1<
0;
1B
0C
1D
0E
0@
1A
0?
08
07
0'
#335000
1#
0$
1&
13
04
16
1=
0<
1;
0B
1C
0D
#340000
0#
1$
0&
0!
1"
0%
03
14
06
05
01
12
1:
09
0>
0=
1<
0;
1B
0C
1D
1E
1@
0A
#345000
1#
0$
1&
13
04
16
1=
0<
1;
0B
1C
0D
1?
18
17
1'
#350000
0#
1$
0&
1!
0"
1%
03
14
06
15
11
02
0:
19
1>
0=
1<
0;
1B
0C
1D
0E
0@
1A
0?
08
07
0'
#355000
1#
0$
1&
13
04
16
1=
0<
1;
0B
1C
0D
#360000
0#
1$
0&
0!
1"
0%
03
14
06
05
01
12
1:
09
0>
0=
1<
0;
1B
0C
1D
1E
1@
0A
#365000
1#
0$
1&
13
04
16
1=
0<
1;
0B
1C
0D
1?
18
17
1'
#370000
0#
1$
0&
1!
0"
1%
03
14
06
15
11
02
0:
19
1>
0=
1<
0;
1B
0C
1D
0E
0@
1A
0?
08
07
0'
#375000
1#
0$
1&
13
04
16
1=
0<
1;
0B
1C
0D
#380000
0#
1$
0&
0!
1"
0%
03
14
06
05
01
12
1:
09
0>
0=
1<
0;
1B
0C
1D
1E
1@
0A
#385000
1#
0$
1&
13
04
16
1=
0<
1;
0B
1C
0D
1?
18
17
1'
#390000
0#
1$
0&
1!
0"
1%
03
14
06
15
11
02
0:
19
1>
0=
1<
0;
1B
0C
1D
0E
0@
1A
0?
08
07
0'
#395000
1#
0$
1&
13
04
16
1=
0<
1;
0B
1C
0D
#400000
0#
1$
0&
0!
1"
0%
03
14
06
05
01
12
1:
09
0>
0=
1<
0;
1B
0C
1D
1E
1@
0A
#405000
1#
0$
1&
13
04
16
1=
0<
1;
0B
1C
0D
1?
18
17
1'
#410000
0#
1$
0&
1!
0"
1%
03
14
06
15
11
02
0:
19
1>
0=
1<
0;
1B
0C
1D
0E
0@
1A
0?
08
07
0'
#415000
1#
0$
1&
13
04
16
1=
0<
1;
0B
1C
0D
#420000
0#
1$
0&
0!
1"
0%
03
14
06
05
01
12
1:
09
0>
0=
1<
0;
1B
0C
1D
1E
1@
0A
#425000
1#
0$
1&
13
04
16
1=
0<
1;
0B
1C
0D
1?
18
17
1'
#430000
0#
1$
0&
1!
0"
1%
03
14
06
15
11
02
0:
19
1>
0=
1<
0;
1B
0C
1D
0E
0@
1A
0?
08
07
0'
#435000
1#
0$
1&
13
04
16
1=
0<
1;
0B
1C
0D
#440000
0#
1$
0&
0!
1"
0%
03
14
06
05
01
12
1:
09
0>
0=
1<
0;
1B
0C
1D
1E
1@
0A
#445000
1#
0$
1&
13
04
16
1=
0<
1;
0B
1C
0D
1?
18
17
1'
#450000
0#
1$
0&
1!
0"
1%
03
14
06
15
11
02
0:
19
1>
0=
1<
0;
1B
0C
1D
0E
0@
1A
0?
08
07
0'
#455000
1#
0$
1&
13
04
16
1=
0<
1;
0B
1C
0D
#460000
0#
1$
0&
0!
1"
0%
03
14
06
05
01
12
1:
09
0>
0=
1<
0;
1B
0C
1D
1E
1@
0A
#465000
1#
0$
1&
13
04
16
1=
0<
1;
0B
1C
0D
1?
18
17
1'
#470000
0#
1$
0&
1!
0"
1%
03
14
06
15
11
02
0:
19
1>
0=
1<
0;
1B
0C
1D
0E
0@
1A
0?
08
07
0'
#475000
1#
0$
1&
13
04
16
1=
0<
1;
0B
1C
0D
#480000
0#
1$
0&
0!
1"
0%
03
14
06
05
01
12
1:
09
0>
0=
1<
0;
1B
0C
1D
1E
1@
0A
#485000
1#
0$
1&
13
04
16
1=
0<
1;
0B
1C
0D
1?
18
17
1'
#490000
0#
1$
0&
1!
0"
1%
03
14
06
15
11
02
0:
19
1>
0=
1<
0;
1B
0C
1D
0E
0@
1A
0?
08
07
0'
#495000
1#
0$
1&
13
04
16
1=
0<
1;
0B
1C
0D
#500000
0#
1$
0&
0!
1"
0%
03
14
06
05
01
12
1:
09
0>
0=
1<
0;
1B
0C
1D
1E
1@
0A
#505000
1#
0$
1&
13
04
16
1=
0<
1;
0B
1C
0D
1?
18
17
1'
#510000
0#
1$
0&
1!
0"
1%
03
14
06
15
11
02
0:
19
1>
0=
1<
0;
1B
0C
1D
0E
0@
1A
0?
08
07
0'
#515000
1#
0$
1&
13
04
16
1=
0<
1;
0B
1C
0D
#520000
0#
1$
0&
0!
1"
0%
03
14
06
05
01
12
1:
09
0>
0=
1<
0;
1B
0C
1D
1E
1@
0A
#525000
1#
0$
1&
13
04
16
1=
0<
1;
0B
1C
0D
1?
18
17
1'
#530000
0#
1$
0&
1!
0"
1%
03
14
06
15
11
02
0:
19
1>
0=
1<
0;
1B
0C
1D
0E
0@
1A
0?
08
07
0'
#535000
1#
0$
1&
13
04
16
1=
0<
1;
0B
1C
0D
#540000
0#
1$
0&
0!
1"
0%
03
14
06
05
01
12
1:
09
0>
0=
1<
0;
1B
0C
1D
1E
1@
0A
#545000
1#
0$
1&
13
04
16
1=
0<
1;
0B
1C
0D
1?
18
17
1'
#550000
0#
1$
0&
1!
0"
1%
03
14
06
15
11
02
0:
19
1>
0=
1<
0;
1B
0C
1D
0E
0@
1A
0?
08
07
0'
#555000
1#
0$
1&
13
04
16
1=
0<
1;
0B
1C
0D
#560000
0#
1$
0&
0!
1"
0%
03
14
06
05
01
12
1:
09
0>
0=
1<
0;
1B
0C
1D
1E
1@
0A
#565000
1#
0$
1&
13
04
16
1=
0<
1;
0B
1C
0D
1?
18
17
1'
#570000
0#
1$
0&
1!
0"
1%
03
14
06
15
11
02
0:
19
1>
0=
1<
0;
1B
0C
1D
0E
0@
1A
0?
08
07
0'
#575000
1#
0$
1&
13
04
16
1=
0<
1;
0B
1C
0D
#580000
0#
1$
0&
0!
1"
0%
03
14
06
05
01
12
1:
09
0>
0=
1<
0;
1B
0C
1D
1E
1@
0A
#585000
1#
0$
1&
13
04
16
1=
0<
1;
0B
1C
0D
1?
18
17
1'
#590000
0#
1$
0&
1!
0"
1%
03
14
06
15
11
02
0:
19
1>
0=
1<
0;
1B
0C
1D
0E
0@
1A
0?
08
07
0'
#595000
1#
0$
1&
13
04
16
1=
0<
1;
0B
1C
0D
#600000
0#
1$
0&
0!
1"
0%
03
14
06
05
01
12
1:
09
0>
0=
1<
0;
1B
0C
1D
1E
1@
0A
#605000
1#
0$
1&
13
04
16
1=
0<
1;
0B
1C
0D
1?
18
17
1'
#610000
0#
1$
0&
1!
0"
1%
03
14
06
15
11
02
0:
19
1>
0=
1<
0;
1B
0C
1D
0E
0@
1A
0?
08
07
0'
#615000
1#
0$
1&
13
04
16
1=
0<
1;
0B
1C
0D
#620000
0#
1$
0&
0!
1"
0%
03
14
06
05
01
12
1:
09
0>
0=
1<
0;
1B
0C
1D
1E
1@
0A
#625000
1#
0$
1&
13
04
16
1=
0<
1;
0B
1C
0D
1?
18
17
1'
#630000
0#
1$
0&
1!
0"
1%
03
14
06
15
11
02
0:
19
1>
0=
1<
0;
1B
0C
1D
0E
0@
1A
0?
08
07
0'
#635000
1#
0$
1&
13
04
16
1=
0<
1;
0B
1C
0D
#640000
0#
1$
0&
0!
1"
0%
03
14
06
05
01
12
1:
09
0>
0=
1<
0;
1B
0C
1D
1E
1@
0A
#645000
1#
0$
1&
13
04
16
1=
0<
1;
0B
1C
0D
1?
18
17
1'
#650000
0#
1$
0&
1!
0"
1%
03
14
06
15
11
02
0:
19
1>
0=
1<
0;
1B
0C
1D
0E
0@
1A
0?
08
07
0'
#655000
1#
0$
1&
13
04
16
1=
0<
1;
0B
1C
0D
#660000
0#
1$
0&
0!
1"
0%
03
14
06
05
01
12
1:
09
0>
0=
1<
0;
1B
0C
1D
1E
1@
0A
#665000
1#
0$
1&
13
04
16
1=
0<
1;
0B
1C
0D
1?
18
17
1'
#670000
0#
1$
0&
1!
0"
1%
03
14
06
15
11
02
0:
19
1>
0=
1<
0;
1B
0C
1D
0E
0@
1A
0?
08
07
0'
#675000
1#
0$
1&
13
04
16
1=
0<
1;
0B
1C
0D
#680000
0#
1$
0&
0!
1"
0%
03
14
06
05
01
12
1:
09
0>
0=
1<
0;
1B
0C
1D
1E
1@
0A
#685000
1#
0$
1&
13
04
16
1=
0<
1;
0B
1C
0D
1?
18
17
1'
#690000
0#
1$
0&
1!
0"
1%
03
14
06
15
11
02
0:
19
1>
0=
1<
0;
1B
0C
1D
0E
0@
1A
0?
08
07
0'
#695000
1#
0$
1&
13
04
16
1=
0<
1;
0B
1C
0D
#700000
0#
1$
0&
0!
1"
0%
03
14
06
05
01
12
1:
09
0>
0=
1<
0;
1B
0C
1D
1E
1@
0A
#705000
1#
0$
1&
13
04
16
1=
0<
1;
0B
1C
0D
1?
18
17
1'
#710000
0#
1$
0&
1!
0"
1%
03
14
06
15
11
02
0:
19
1>
0=
1<
0;
1B
0C
1D
0E
0@
1A
0?
08
07
0'
#715000
1#
0$
1&
13
04
16
1=
0<
1;
0B
1C
0D
#720000
0#
1$
0&
0!
1"
0%
03
14
06
05
01
12
1:
09
0>
0=
1<
0;
1B
0C
1D
1E
1@
0A
#725000
1#
0$
1&
13
04
16
1=
0<
1;
0B
1C
0D
1?
18
17
1'
#730000
0#
1$
0&
1!
0"
1%
03
14
06
15
11
02
0:
19
1>
0=
1<
0;
1B
0C
1D
0E
0@
1A
0?
08
07
0'
#735000
1#
0$
1&
13
04
16
1=
0<
1;
0B
1C
0D
#740000
0#
1$
0&
0!
1"
0%
03
14
06
05
01
12
1:
09
0>
0=
1<
0;
1B
0C
1D
1E
1@
0A
#745000
1#
0$
1&
13
04
16
1=
0<
1;
0B
1C
0D
1?
18
17
1'
#750000
0#
1$
0&
1!
0"
1%
03
14
06
15
11
02
0:
19
1>
0=
1<
0;
1B
0C
1D
0E
0@
1A
0?
08
07
0'
#755000
1#
0$
1&
13
04
16
1=
0<
1;
0B
1C
0D
#760000
0#
1$
0&
0!
1"
0%
03
14
06
05
01
12
1:
09
0>
0=
1<
0;
1B
0C
1D
1E
1@
0A
#765000
1#
0$
1&
13
04
16
1=
0<
1;
0B
1C
0D
1?
18
17
1'
#770000
0#
1$
0&
1!
0"
1%
03
14
06
15
11
02
0:
19
1>
0=
1<
0;
1B
0C
1D
0E
0@
1A
0?
08
07
0'
#775000
1#
0$
1&
13
04
16
1=
0<
1;
0B
1C
0D
#780000
0#
1$
0&
0!
1"
0%
03
14
06
05
01
12
1:
09
0>
0=
1<
0;
1B
0C
1D
1E
1@
0A
#785000
1#
0$
1&
13
04
16
1=
0<
1;
0B
1C
0D
1?
18
17
1'
#790000
0#
1$
0&
1!
0"
1%
03
14
06
15
11
02
0:
19
1>
0=
1<
0;
1B
0C
1D
0E
0@
1A
0?
08
07
0'
#795000
1#
0$
1&
13
04
16
1=
0<
1;
0B
1C
0D
#800000
0#
1$
0&
0!
1"
0%
03
14
06
05
01
12
1:
09
0>
0=
1<
0;
1B
0C
1D
1E
1@
0A
#805000
1#
0$
1&
13
04
16
1=
0<
1;
0B
1C
0D
1?
18
17
1'
#810000
0#
1$
0&
1!
0"
1%
03
14
06
15
11
02
0:
19
1>
0=
1<
0;
1B
0C
1D
0E
0@
1A
0?
08
07
0'
#815000
1#
0$
1&
13
04
16
1=
0<
1;
0B
1C
0D
#820000
0#
1$
0&
0!
1"
0%
03
14
06
05
01
12
1:
09
0>
0=
1<
0;
1B
0C
1D
1E
1@
0A
#825000
1#
0$
1&
13
04
16
1=
0<
1;
0B
1C
0D
1?
18
17
1'
#830000
0#
1$
0&
1!
0"
1%
03
14
06
15
11
02
0:
19
1>
0=
1<
0;
1B
0C
1D
0E
0@
1A
0?
08
07
0'
#835000
1#
0$
1&
13
04
16
1=
0<
1;
0B
1C
0D
#840000
0#
1$
0&
0!
1"
0%
03
14
06
05
01
12
1:
09
0>
0=
1<
0;
1B
0C
1D
1E
1@
0A
#845000
1#
0$
1&
13
04
16
1=
0<
1;
0B
1C
0D
1?
18
17
1'
#850000
0#
1$
0&
1!
0"
1%
03
14
06
15
11
02
0:
19
1>
0=
1<
0;
1B
0C
1D
0E
0@
1A
0?
08
07
0'
#855000
1#
0$
1&
13
04
16
1=
0<
1;
0B
1C
0D
#860000
0#
1$
0&
0!
1"
0%
03
14
06
05
01
12
1:
09
0>
0=
1<
0;
1B
0C
1D
1E
1@
0A
#865000
1#
0$
1&
13
04
16
1=
0<
1;
0B
1C
0D
1?
18
17
1'
#870000
0#
1$
0&
1!
0"
1%
03
14
06
15
11
02
0:
19
1>
0=
1<
0;
1B
0C
1D
0E
0@
1A
0?
08
07
0'
#875000
1#
0$
1&
13
04
16
1=
0<
1;
0B
1C
0D
#880000
0#
1$
0&
0!
1"
0%
03
14
06
05
01
12
1:
09
0>
0=
1<
0;
1B
0C
1D
1E
1@
0A
#885000
1#
0$
1&
13
04
16
1=
0<
1;
0B
1C
0D
1?
18
17
1'
#890000
0#
1$
0&
1!
0"
1%
03
14
06
15
11
02
0:
19
1>
0=
1<
0;
1B
0C
1D
0E
0@
1A
0?
08
07
0'
#895000
1#
0$
1&
13
04
16
1=
0<
1;
0B
1C
0D
#900000
0#
1$
0&
0!
1"
0%
03
14
06
05
01
12
1:
09
0>
0=
1<
0;
1B
0C
1D
1E
1@
0A
#905000
1#
0$
1&
13
04
16
1=
0<
1;
0B
1C
0D
1?
18
17
1'
#910000
0#
1$
0&
1!
0"
1%
03
14
06
15
11
02
0:
19
1>
0=
1<
0;
1B
0C
1D
0E
0@
1A
0?
08
07
0'
#915000
1#
0$
1&
13
04
16
1=
0<
1;
0B
1C
0D
#920000
0#
1$
0&
0!
1"
0%
03
14
06
05
01
12
1:
09
0>
0=
1<
0;
1B
0C
1D
1E
1@
0A
#925000
1#
0$
1&
13
04
16
1=
0<
1;
0B
1C
0D
1?
18
17
1'
#930000
0#
1$
0&
1!
0"
1%
03
14
06
15
11
02
0:
19
1>
0=
1<
0;
1B
0C
1D
0E
0@
1A
0?
08
07
0'
#935000
1#
0$
1&
13
04
16
1=
0<
1;
0B
1C
0D
#940000
0#
1$
0&
0!
1"
0%
03
14
06
05
01
12
1:
09
0>
0=
1<
0;
1B
0C
1D
1E
1@
0A
#945000
1#
0$
1&
13
04
16
1=
0<
1;
0B
1C
0D
1?
18
17
1'
#950000
0#
1$
0&
1!
0"
1%
03
14
06
15
11
02
0:
19
1>
0=
1<
0;
1B
0C
1D
0E
0@
1A
0?
08
07
0'
#955000
1#
0$
1&
13
04
16
1=
0<
1;
0B
1C
0D
#960000
0#
1$
0&
0!
1"
0%
03
14
06
05
01
12
1:
09
0>
0=
1<
0;
1B
0C
1D
1E
1@
0A
#965000
1#
0$
1&
13
04
16
1=
0<
1;
0B
1C
0D
1?
18
17
1'
#970000
0#
1$
0&
1!
0"
1%
03
14
06
15
11
02
0:
19
1>
0=
1<
0;
1B
0C
1D
0E
0@
1A
0?
08
07
0'
#975000
1#
0$
1&
13
04
16
1=
0<
1;
0B
1C
0D
#980000
0#
1$
0&
0!
1"
0%
03
14
06
05
01
12
1:
09
0>
0=
1<
0;
1B
0C
1D
1E
1@
0A
#985000
1#
0$
1&
13
04
16
1=
0<
1;
0B
1C
0D
1?
18
17
1'
#990000
0#
1$
0&
1!
0"
1%
03
14
06
15
11
02
0:
19
1>
0=
1<
0;
1B
0C
1D
0E
0@
1A
0?
08
07
0'
#995000
1#
0$
1&
13
04
16
1=
0<
1;
0B
1C
0D
