UC/simulation/qsim/uc.msim.vcd
$comment
	File created using the following command:
		vcd file uc.msim.vcd -direction
$end
$date
	Fri Oct 26 22:10:08 2018
$end
$version
	ModelSim Version 10.5b
$end
$timescale
	1ps
$end

$scope module uc_vhd_vec_tst $end
$var wire 1 ! aluop0 $end
$var wire 1 " aluop1 $end
$var wire 1 # branch $end
$var wire 1 $ entrada [4] $end
$var wire 1 % entrada [3] $end
$var wire 1 & entrada [2] $end
$var wire 1 ' entrada [1] $end
$var wire 1 ( entrada [0] $end
$var wire 1 ) escrevemem $end
$var wire 1 * escrevereg $end
$var wire 1 + lemem $end
$var wire 1 , memparareg $end
$var wire 1 - origalu $end
$var wire 1 . regdest $end

$scope module i1 $end
$var wire 1 / gnd $end
$var wire 1 0 vcc $end
$var wire 1 1 unknown $end
$var wire 1 2 devoe $end
$var wire 1 3 devclrn $end
$var wire 1 4 devpor $end
$var wire 1 5 ww_devoe $end
$var wire 1 6 ww_devclrn $end
$var wire 1 7 ww_devpor $end
$var wire 1 8 ww_entrada [4] $end
$var wire 1 9 ww_entrada [3] $end
$var wire 1 : ww_entrada [2] $end
$var wire 1 ; ww_entrada [1] $end
$var wire 1 < ww_entrada [0] $end
$var wire 1 = ww_regdest $end
$var wire 1 > ww_origalu $end
$var wire 1 ? ww_memparareg $end
$var wire 1 @ ww_escrevereg $end
$var wire 1 A ww_lemem $end
$var wire 1 B ww_escrevemem $end
$var wire 1 C ww_branch $end
$var wire 1 D ww_aluop1 $end
$var wire 1 E ww_aluop0 $end
$var wire 1 F \regdest~output_o\ $end
$var wire 1 G \origalu~output_o\ $end
$var wire 1 H \memparareg~output_o\ $end
$var wire 1 I \escrevereg~output_o\ $end
$var wire 1 J \lemem~output_o\ $end
$var wire 1 K \escrevemem~output_o\ $end
$var wire 1 L \branch~output_o\ $end
$var wire 1 M \aluop1~output_o\ $end
$var wire 1 N \aluop0~output_o\ $end
$var wire 1 O \entrada[2]~input_o\ $end
$var wire 1 P \entrada[0]~input_o\ $end
$var wire 1 Q \entrada[1]~input_o\ $end
$var wire 1 R \entrada[3]~input_o\ $end
$var wire 1 S \entrada[4]~input_o\ $end
$var wire 1 T \Equal0~0_combout\ $end
$var wire 1 U \regdest~1_combout\ $end
$var wire 1 V \Equal1~0_combout\ $end
$var wire 1 W \origalu~1_combout\ $end
$var wire 1 X \Equal1~1_combout\ $end
$var wire 1 Y \escrevemem~1_combout\ $end
$var wire 1 Z \branch~1_combout\ $end
$var wire 1 [ \ALT_INV_entrada[4]~input_o\ $end
$var wire 1 \ \ALT_INV_entrada[3]~input_o\ $end
$var wire 1 ] \ALT_INV_entrada[1]~input_o\ $end
$var wire 1 ^ \ALT_INV_entrada[0]~input_o\ $end
$var wire 1 _ \ALT_INV_entrada[2]~input_o\ $end
$var wire 1 ` \ALT_INV_Equal0~0_combout\ $end
$upscope $end
$upscope $end
$enddefinitions $end
#0
$dumpvars
z!
z"
z#
z)
z*
z+
z,
z-
z.
0/
10
x1
12
13
14
15
16
17
z=
z>
z?
z@
zA
zB
zC
zD
zE
zF
zG
zH
zI
zJ
zK
zL
zM
zN
0O
1P
1Q
0R
0S
1T
0U
0V
0W
0X
0Y
1Z
1[
1\
0]
0^
1_
0`
0$
0%
0&
1'
1(
08
09
0:
1;
1<
$end
#10000
1&
0'
0(
0<
0;
1:
1O
0Q
0P
1^
1]
0_
1W
0G
0I
0J
0K
1L
0M
1N
0>
0@
0A
0B
1C
0D
1E
0-
0*
0+
0)
1#
0"
1!
#20000
1(
1<
1P
0^
0W
zG
zI
zJ
zK
zL
zM
zN
z>
z@
zA
zB
zC
zD
zE
z-
z*
z+
z)
z#
z"
z!
#30000
0(
1'
0<
1;
1Q
0P
1^
0]
#40000
1(
1<
1P
0^
#50000
0(
0'
0&
1%
0<
0;
0:
19
1R
0O
0Q
0P
1^
1]
1_
0\
#60000
1(
1<
1P
0^
#70000
0(
1'
0<
1;
1Q
0P
1^
0]
#80000
1(
1<
1P
0^
#90000
0(
0'
1&
0<
0;
1:
1O
0Q
0P
1^
1]
0_
#100000
1(
1<
1P
0^
#110000
0(
1'
0<
1;
1Q
0P
1^
0]
#120000
1(
1<
1P
0^
#130000
0(
0'
0&
0%
1$
0<
0;
0:
09
18
1S
0R
0O
0Q
0P
1^
1]
1_
1\
0[
#140000
1(
1<
1P
0^
#150000
0(
1'
0<
1;
1Q
0P
1^
0]
#160000
1(
1<
1P
0^
#170000
0(
0'
1&
0<
0;
1:
1O
0Q
0P
1^
1]
0_
#180000
1(
1<
1P
0^
#190000
0(
1'
0<
1;
1Q
0P
1^
0]
#200000
1(
1<
1P
0^
#210000
0(
0'
0&
1%
0<
0;
0:
19
1R
0O
0Q
0P
1^
1]
1_
0\
#220000
1(
1<
1P
0^
1U
1V
1W
1X
0Z
1J
0K
0L
0M
0N
1G
0F
1H
1I
1A
0B
0C
0D
0E
1>
0=
1?
1@
1+
0)
0#
0"
0!
1-
0.
1,
1*
#230000
0(
1'
0<
1;
1Q
0P
1^
0]
0U
0V
0W
0X
1Z
zJ
zK
zL
zM
zN
zG
zF
zH
zI
zA
zB
zC
zD
zE
z>
z=
z?
z@
z+
z)
z#
z"
z!
z-
z.
z,
z*
#240000
1(
1<
1P
0^
1V
1W
1Y
0Z
0I
0J
1K
0L
0M
0N
1G
0@
0A
1B
0C
0D
0E
1>
0*
0+
1)
0#
0"
0!
1-
#250000
0(
0'
1&
0<
0;
1:
1O
0Q
0P
1^
1]
0_
0V
0W
0Y
1Z
zI
zJ
zK
zL
zM
zN
zG
z@
zA
zB
zC
zD
zE
z>
z*
z+
z)
z#
z"
z!
z-
#260000
1(
1<
1P
0^
#270000
0(
1'
0<
1;
1Q
0P
1^
0]
#280000
1(
1<
1P
0^
#290000
0(
0'
0&
0%
0$
0<
0;
0:
09
08
0S
0R
0O
0Q
0P
1^
1]
1_
1\
1[
0T
1U
1W
0Z
1`
0G
0J
0K
0L
0M
0N
0F
1I
0H
1F
1M
0>
0A
0B
0C
0D
0E
0=
1@
0?
1=
1D
0-
0+
0)
0#
0"
0!
0.
1*
0,
1.
1"
#300000
1(
1<
1P
0^
1T
0U
0W
1Z
0`
zG
zJ
zK
zL
zM
zN
zF
zI
zH
z>
zA
zB
zC
zD
zE
z=
z@
z?
z-
z+
z)
z#
z"
z!
z.
z*
z,
#310000
0(
1'
0<
1;
1Q
0P
1^
0]
#320000
1(
1<
1P
0^
#330000
0(
0'
1&
0<
0;
1:
1O
0Q
0P
1^
1]
0_
1W
0G
0I
0J
0K
1L
0M
1N
0>
0@
0A
0B
1C
0D
1E
0-
0*
0+
0)
1#
0"
1!
#340000
1(
1<
1P
0^
0W
zG
zI
zJ
zK
zL
zM
zN
z>
z@
zA
zB
zC
zD
zE
z-
z*
z+
z)
z#
z"
z!
#350000
0(
1'
0<
1;
1Q
0P
1^
0]
#360000
1(
1<
1P
0^
#370000
0(
0'
0&
1%
0<
0;
0:
19
1R
0O
0Q
0P
1^
1]
1_
0\
#380000
1(
1<
1P
0^
#390000
0(
1'
0<
1;
1Q
0P
1^
0]
#400000
1(
1<
1P
0^
#410000
0(
0'
1&
0<
0;
1:
1O
0Q
0P
1^
1]
0_
#420000
1(
1<
1P
0^
#430000
0(
1'
0<
1;
1Q
0P
1^
0]
#440000
1(
1<
1P
0^
#450000
0(
0'
0&
0%
1$
0<
0;
0:
09
18
1S
0R
0O
0Q
0P
1^
1]
1_
1\
0[
#460000
1(
1<
1P
0^
#470000
0(
1'
0<
1;
1Q
0P
1^
0]
#480000
1(
1<
1P
0^
#490000
0(
0'
1&
0<
0;
1:
1O
0Q
0P
1^
1]
0_
#500000
1(
1<
1P
0^
#510000
0(
1'
0<
1;
1Q
0P
1^
0]
#520000
1(
1<
1P
0^
#530000
0(
0'
0&
1%
0<
0;
0:
19
1R
0O
0Q
0P
1^
1]
1_
0\
#540000
1(
1<
1P
0^
1U
1V
1W
1X
0Z
1J
0K
0L
0M
0N
1G
0F
1H
1I
1A
0B
0C
0D
0E
1>
0=
1?
1@
1+
0)
0#
0"
0!
1-
0.
1,
1*
#550000
0(
1'
0<
1;
1Q
0P
1^
0]
0U
0V
0W
0X
1Z
zJ
zK
zL
zM
zN
zG
zF
zH
zI
zA
zB
zC
zD
zE
z>
z=
z?
z@
z+
z)
z#
z"
z!
z-
z.
z,
z*
#560000
1(
1<
1P
0^
1V
1W
1Y
0Z
0I
0J
1K
0L
0M
0N
1G
0@
0A
1B
0C
0D
0E
1>
0*
0+
1)
0#
0"
0!
1-
#570000
0(
0'
1&
0<
0;
1:
1O
0Q
0P
1^
1]
0_
0V
0W
0Y
1Z
zI
zJ
zK
zL
zM
zN
zG
z@
zA
zB
zC
zD
zE
z>
z*
z+
z)
z#
z"
z!
z-
#580000
1(
1<
1P
0^
#590000
0(
1'
0<
1;
1Q
0P
1^
0]
#600000
1(
1<
1P
0^
#610000
0(
0'
0&
0%
0$
0<
0;
0:
09
08
0S
0R
0O
0Q
0P
1^
1]
1_
1\
1[
0T
1U
1W
0Z
1`
0G
0J
0K
0L
0M
0N
0F
1I
0H
1F
1M
0>
0A
0B
0C
0D
0E
0=
1@
0?
1=
1D
0-
0+
0)
0#
0"
0!
0.
1*
0,
1.
1"
#620000
1(
1<
1P
0^
1T
0U
0W
1Z
0`
zG
zJ
zK
zL
zM
zN
zF
zI
zH
z>
zA
zB
zC
zD
zE
z=
z@
z?
z-
z+
z)
z#
z"
z!
z.
z*
z,
#630000
0(
1'
0<
1;
1Q
0P
1^
0]
#640000
1(
1<
1P
0^
#650000
0(
0'
1&
0<
0;
1:
1O
0Q
0P
1^
1]
0_
1W
0G
0I
0J
0K
1L
0M
1N
0>
0@
0A
0B
1C
0D
1E
0-
0*
0+
0)
1#
0"
1!
#660000
1(
1<
1P
0^
0W
zG
zI
zJ
zK
zL
zM
zN
z>
z@
zA
zB
zC
zD
zE
z-
z*
z+
z)
z#
z"
z!
#670000
0(
1'
0<
1;
1Q
0P
1^
0]
#680000
1(
1<
1P
0^
#690000
0(
0'
0&
1%
0<
0;
0:
19
1R
0O
0Q
0P
1^
1]
1_
0\
#700000
1(
1<
1P
0^
#710000
0(
1'
0<
1;
1Q
0P
1^
0]
#720000
1(
1<
1P
0^
#730000
0(
0'
1&
0<
0;
1:
1O
0Q
0P
1^
1]
0_
#740000
1(
1<
1P
0^
#750000
0(
1'
0<
1;
1Q
0P
1^
0]
#760000
1(
1<
1P
0^
#770000
0(
0'
0&
0%
1$
0<
0;
0:
09
18
1S
0R
0O
0Q
0P
1^
1]
1_
1\
0[
#780000
1(
1<
1P
0^
#790000
0(
1'
0<
1;
1Q
0P
1^
0]
#800000
1(
1<
1P
0^
#810000
0(
0'
1&
0<
0;
1:
1O
0Q
0P
1^
1]
0_
#820000
1(
1<
1P
0^
#830000
0(
1'
0<
1;
1Q
0P
1^
0]
#840000
1(
1<
1P
0^
#850000
0(
0'
0&
1%
0<
0;
0:
19
1R
0O
0Q
0P
1^
1]
1_
0\
#860000
1(
1<
1P
0^
1U
1V
1W
1X
0Z
1J
0K
0L
0M
0N
1G
0F
1H
1I
1A
0B
0C
0D
0E
1>
0=
1?
1@
1+
0)
0#
0"
0!
1-
0.
1,
1*
#870000
0(
1'
0<
1;
1Q
0P
1^
0]
0U
0V
0W
0X
1Z
zJ
zK
zL
zM
zN
zG
zF
zH
zI
zA
zB
zC
zD
zE
z>
z=
z?
z@
z+
z)
z#
z"
z!
z-
z.
z,
z*
#880000
1(
1<
1P
0^
1V
1W
1Y
0Z
0I
0J
1K
0L
0M
0N
1G
0@
0A
1B
0C
0D
0E
1>
0*
0+
1)
0#
0"
0!
1-
#890000
0(
0'
1&
0<
0;
1:
1O
0Q
0P
1^
1]
0_
0V
0W
0Y
1Z
zI
zJ
zK
zL
zM
zN
zG
z@
zA
zB
zC
zD
zE
z>
z*
z+
z)
z#
z"
z!
z-
#900000
1(
1<
1P
0^
#910000
0(
1'
0<
1;
1Q
0P
1^
0]
#920000
1(
1<
1P
0^
#930000
0(
0'
0&
0%
0$
0<
0;
0:
09
08
0S
0R
0O
0Q
0P
1^
1]
1_
1\
1[
0T
1U
1W
0Z
1`
0G
0J
0K
0L
0M
0N
0F
1I
0H
1F
1M
0>
0A
0B
0C
0D
0E
0=
1@
0?
1=
1D
0-
0+
0)
0#
0"
0!
0.
1*
0,
1.
1"
#940000
1(
1<
1P
0^
1T
0U
0W
1Z
0`
zG
zJ
zK
zL
zM
zN
zF
zI
zH
z>
zA
zB
zC
zD
zE
z=
z@
z?
z-
z+
z)
z#
z"
z!
z.
z*
z,
#950000
0(
1'
0<
1;
1Q
0P
1^
0]
#960000
1(
1<
1P
0^
#970000
0(
0'
1&
0<
0;
1:
1O
0Q
0P
1^
1]
0_
1W
0G
0I
0J
0K
1L
0M
1N
0>
0@
0A
0B
1C
0D
1E
0-
0*
0+
0)
1#
0"
1!
#980000
1(
1<
1P
0^
0W
zG
zI
zJ
zK
zL
zM
zN
z>
z@
zA
zB
zC
zD
zE
z-
z*
z+
z)
z#
z"
z!
#990000
0(
1'
0<
1;
1Q
0P
1^
0]
