Registradores/RegistradorJK/simulation/qsim/registerjk.msim.vcd
$comment
	File created using the following command:
		vcd file registerjk.msim.vcd -direction
$end
$date
	Fri Oct 26 20:13:31 2018
$end
$version
	ModelSim Version 10.5b
$end
$timescale
	1ps
$end

$scope module registerjk_vhd_vec_tst $end
$var wire 1 ! clock $end
$var wire 1 " J $end
$var wire 1 # K $end
$var wire 1 $ Q $end
$var wire 1 % Qbar $end

$scope module i1 $end
$var wire 1 & gnd $end
$var wire 1 ' vcc $end
$var wire 1 ( unknown $end
$var wire 1 ) devoe $end
$var wire 1 * devclrn $end
$var wire 1 + devpor $end
$var wire 1 , ww_devoe $end
$var wire 1 - ww_devclrn $end
$var wire 1 . ww_devpor $end
$var wire 1 / ww_clock $end
$var wire 1 0 ww_J $end
$var wire 1 1 ww_K $end
$var wire 1 2 ww_Q $end
$var wire 1 3 ww_Qbar $end
$var wire 1 4 \Q~output_o\ $end
$var wire 1 5 \Qbar~output_o\ $end
$var wire 1 6 \clock~input_o\ $end
$var wire 1 7 \J~input_o\ $end
$var wire 1 8 \K~input_o\ $end
$var wire 1 9 \Mux0~0_combout\ $end
$var wire 1 : \state~q\ $end
$var wire 1 ; \ALT_INV_state~q\ $end
$var wire 1 < \ALT_INV_J~input_o\ $end
$var wire 1 = \ALT_INV_K~input_o\ $end
$upscope $end
$upscope $end
$enddefinitions $end
#0
$dumpvars
1!
0"
1#
0$
1%
0&
1'
x(
1)
1*
1+
1,
1-
1.
1/
00
11
02
13
04
15
16
07
18
09
0:
1;
1<
0=
$end
#5000
1"
0#
10
01
08
17
0<
1=
19
#15000
0!
0/
06
#20000
1!
0"
1/
00
07
16
1<
1:
09
0;
19
14
05
12
03
1$
0%
#25000
0!
1"
0/
10
17
06
0<
#30000
1!
0"
1#
1/
00
11
18
07
16
1<
0=
09
#35000
1"
0#
10
01
08
17
0<
1=
19
#40000
0"
0!
00
0/
06
07
1<
#45000
1#
11
18
0=
09
#50000
1!
1/
16
0:
1;
04
15
02
13
0$
1%
#55000
0!
0#
1"
0/
01
10
17
08
06
1=
0<
19
#60000
1!
1#
0"
1/
11
00
07
18
16
0=
1<
1:
09
0;
14
05
12
03
1$
0%
#65000
0!
0/
06
#70000
1!
1/
16
0:
1;
04
15
02
13
0$
1%
#75000
0!
1"
0/
10
17
06
0<
19
#80000
1!
0"
1/
00
07
16
1<
1:
09
0;
14
05
12
03
1$
0%
#85000
0#
01
08
1=
19
#90000
1#
0!
1"
11
0/
10
17
06
18
0=
0<
09
#100000
0#
1!
01
1/
16
08
1=
0:
19
1;
04
15
02
13
0$
1%
#115000
1#
0!
0"
11
0/
00
07
06
18
0=
1<
09
#120000
1"
10
17
0<
19
#125000
0"
0#
00
01
08
07
1<
1=
09
#130000
1!
1/
16
#135000
1#
11
18
0=
#140000
1"
10
17
0<
19
#145000
0#
01
08
1=
#150000
0"
00
07
1<
09
#160000
1"
10
17
0<
19
#165000
1#
0!
11
0/
06
18
0=
#170000
0#
01
08
1=
#175000
0"
00
07
1<
09
#180000
1"
1!
10
1/
16
17
0<
19
#185000
0"
00
07
1<
09
#190000
1"
0!
1#
10
0/
11
18
06
17
0<
0=
19
#195000
0#
01
08
1=
#200000
0"
1!
00
1/
16
07
1<
1:
09
0;
19
14
05
12
03
1$
0%
#205000
1"
10
17
0<
#215000
0"
0!
00
0/
06
07
1<
#220000
1!
1#
1/
11
18
16
0=
09
#225000
0!
0#
1"
0/
01
10
17
08
06
1=
0<
19
#235000
1!
1#
1/
11
18
16
0=
09
#245000
0!
0#
0"
0/
01
00
07
08
06
1=
1<
19
#250000
1!
1"
1/
10
17
16
0<
#255000
0!
0"
1#
0/
00
11
18
07
06
1<
0=
09
#260000
1!
1"
0#
1/
10
01
08
17
16
0<
1=
0:
19
1;
04
15
02
13
0$
1%
#265000
0!
0/
06
#270000
1!
0"
1/
00
07
16
1<
1:
09
0;
19
14
05
12
03
1$
0%
#275000
1"
10
17
0<
#280000
0"
00
07
1<
#285000
1"
1#
10
11
18
17
0<
0=
09
#290000
0!
0/
06
#295000
1!
0#
1/
01
08
16
1=
0:
19
1;
04
15
02
13
0$
1%
#300000
0"
00
07
1<
09
#310000
0!
0/
06
#315000
1"
10
17
0<
19
#320000
0"
1!
00
1/
16
07
1<
1:
09
0;
19
14
05
12
03
1$
0%
#330000
0!
0/
06
#335000
1!
1"
1#
1/
10
11
18
17
16
0<
0=
09
#340000
0#
01
08
1=
19
#345000
1#
11
18
0=
09
#350000
0#
0!
01
0/
06
08
1=
19
#355000
0"
00
07
1<
#360000
1!
1/
16
#365000
0!
1#
0/
11
18
06
0=
09
#375000
1!
1"
1/
10
17
16
0<
0:
1;
19
04
15
02
13
0$
1%
#380000
0!
0/
06
#385000
1!
1/
16
1:
0;
09
14
05
12
03
1$
0%
#390000
0"
0#
00
01
08
07
1<
1=
19
#400000
1#
0!
11
0/
06
18
0=
09
#405000
0#
01
08
1=
19
#410000
1#
1!
1"
11
1/
10
17
16
18
0=
0<
09
#415000
0#
0"
01
00
07
08
1=
1<
19
#420000
1"
10
17
0<
#430000
0"
1#
00
11
18
07
1<
0=
09
#440000
1"
0#
10
01
08
17
0<
1=
19
#445000
0"
1#
00
11
18
07
1<
0=
09
#450000
1"
0!
10
0/
06
17
0<
#455000
0"
1!
0#
00
1/
01
08
16
07
1<
1=
0:
19
1;
09
04
15
02
13
0$
1%
#465000
1"
0!
10
0/
06
17
0<
19
#470000
0"
1#
00
11
18
07
1<
0=
09
#475000
1"
1!
10
1/
16
17
0<
19
#480000
0!
0/
06
#485000
0"
00
07
1<
09
#500000
0#
01
08
1=
#505000
1"
10
17
0<
19
#510000
0"
1!
00
1/
16
07
1<
1:
09
0;
19
14
05
12
03
1$
0%
#515000
0!
0/
06
#520000
1!
1"
1/
10
17
16
0<
#525000
0!
1#
0/
11
18
06
0=
09
#530000
0"
00
07
1<
#540000
1"
0#
10
01
08
17
0<
1=
19
#545000
0"
1#
1!
00
11
1/
16
18
07
1<
0=
09
#550000
0!
0/
06
#555000
1!
0#
1/
01
08
16
1=
0:
19
1;
09
04
15
02
13
0$
1%
#560000
1#
1"
11
10
17
18
0=
0<
19
#565000
0"
0!
00
0/
06
07
1<
09
#570000
1!
0#
1/
01
08
16
1=
#575000
0!
1"
0/
10
17
06
0<
19
#580000
0"
00
07
1<
09
#585000
1!
1/
16
#590000
1"
1#
10
11
18
17
0<
0=
19
#595000
0"
0#
0!
00
01
0/
06
08
07
1<
1=
09
#600000
1#
11
18
0=
#605000
0#
1"
1!
01
10
1/
16
17
08
1=
0<
19
#610000
1#
11
18
0=
#620000
0!
0/
06
#625000
0#
01
08
1=
#630000
1!
0"
1/
00
07
16
1<
1:
09
0;
19
14
05
12
03
1$
0%
#645000
0!
1#
0/
11
18
06
0=
09
#650000
1!
1"
1/
10
17
16
0<
0:
1;
19
04
15
02
13
0$
1%
#655000
0"
0#
00
01
08
07
1<
1=
09
#660000
1"
1#
10
11
18
17
0<
0=
19
#670000
0#
0!
01
0/
06
08
1=
#675000
1#
0"
11
00
07
18
0=
1<
09
#680000
1"
10
17
0<
19
#685000
1!
1/
16
1:
0;
09
14
05
12
03
1$
0%
#690000
0"
0#
00
01
08
07
1<
1=
19
#695000
1"
1#
0!
10
11
0/
06
18
17
0<
0=
09
#705000
0#
1!
01
1/
16
08
1=
0:
19
1;
04
15
02
13
0$
1%
#710000
0!
0/
06
#715000
1#
11
18
0=
#720000
0#
0"
01
00
07
08
1=
1<
09
#725000
1!
1/
16
#730000
1#
11
18
0=
#735000
1"
10
17
0<
19
#740000
0"
0!
00
0/
06
07
1<
09
#745000
1"
1!
0#
10
1/
01
08
16
17
0<
1=
19
#750000
0!
0/
06
#760000
1!
0"
1/
00
07
16
1<
1:
09
0;
19
14
05
12
03
1$
0%
#765000
0!
0/
06
#770000
1!
1"
1/
10
17
16
0<
#780000
1#
11
18
0=
09
#785000
0!
0/
06
#790000
0"
00
07
1<
#795000
1!
1/
16
0:
1;
04
15
02
13
0$
1%
#800000
0#
01
08
1=
#805000
0!
1"
0/
10
17
06
0<
19
#810000
1!
1/
16
1:
0;
14
05
12
03
1$
0%
#815000
0!
0"
0/
00
07
06
1<
#820000
1!
1#
1/
11
18
16
0=
09
#825000
0!
0/
06
#830000
1!
0#
1"
1/
01
10
17
08
16
1=
0<
0:
19
1;
04
15
02
13
0$
1%
#835000
0!
1#
0/
11
18
06
0=
#840000
0"
00
07
1<
09
#845000
0#
01
08
1=
#850000
1#
1!
11
1/
16
18
0=
#855000
0#
1"
01
10
17
08
1=
0<
19
#860000
1#
11
18
0=
#865000
0"
00
07
1<
09
#870000
0!
0/
06
#875000
1!
0#
1/
01
08
16
1=
#880000
0!
1#
0/
11
18
06
0=
#885000
1!
0#
1/
01
08
16
1=
#890000
1"
10
17
0<
19
#895000
0"
0!
1#
00
0/
11
18
06
07
1<
0=
09
#900000
1"
10
17
0<
19
#905000
1!
0#
1/
01
08
16
1=
1:
0;
14
05
12
03
1$
0%
#910000
0!
1#
0/
11
18
06
0=
09
#915000
1!
0#
1/
01
08
16
1=
0:
19
1;
04
15
02
13
0$
1%
#920000
0!
0"
0/
00
07
06
1<
09
#930000
1!
1"
1/
10
17
16
0<
19
#935000
0!
0"
0/
00
07
06
1<
09
#940000
1!
1#
1/
11
18
16
0=
#945000
0#
01
08
1=
#950000
1"
10
17
0<
19
#955000
1#
11
18
0=
#960000
0#
01
08
1=
#970000
1#
0"
11
00
07
18
0=
1<
09
#975000
0#
01
08
1=
#980000
1"
10
17
0<
19
#990000
0!
0/
06
#995000
1!
1/
16
1:
0;
14
05
12
03
1$
0%
