Xor/simulation/qsim/QXor.msim.vcd
$comment
	File created using the following command:
		vcd file QXor.msim.vcd -direction
$end
$date
	Fri Oct 26 20:41:46 2018
$end
$version
	ModelSim Version 10.5b
$end
$timescale
	1ps
$end

$scope module qxor_vhd_vec_tst $end
$var wire 1 ! i $end
$var wire 1 " l $end
$var wire 1 # m $end

$scope module i1 $end
$var wire 1 $ gnd $end
$var wire 1 % vcc $end
$var wire 1 & unknown $end
$var wire 1 ' devoe $end
$var wire 1 ( devclrn $end
$var wire 1 ) devpor $end
$var wire 1 * ww_devoe $end
$var wire 1 + ww_devclrn $end
$var wire 1 , ww_devpor $end
$var wire 1 - ww_l $end
$var wire 1 . ww_m $end
$var wire 1 / ww_i $end
$var wire 1 0 \i~output_o\ $end
$var wire 1 1 \l~input_o\ $end
$var wire 1 2 \m~input_o\ $end
$var wire 1 3 \G5|k~0_combout\ $end
$var wire 1 4 \ALT_INV_l~input_o\ $end
$var wire 1 5 \ALT_INV_m~input_o\ $end
$upscope $end
$upscope $end
$enddefinitions $end
#0
$dumpvars
1!
1"
0#
0$
1%
x&
1'
1(
1)
1*
1+
1,
1-
0.
1/
10
11
02
13
04
15
$end
#10000
1#
1.
12
05
03
00
0/
0!
#20000
0#
0.
02
15
13
10
1/
1!
#30000
1#
1.
12
05
03
00
0/
0!
#40000
0"
0-
01
14
13
10
1/
1!
#50000
1"
0#
1-
0.
02
11
04
15
#60000
0"
0-
01
14
03
00
0/
0!
#80000
1"
1#
1-
1.
12
11
04
05
#90000
0"
0-
01
14
13
10
1/
1!
#100000
1"
0#
1-
0.
02
11
04
15
#110000
1#
1.
12
05
03
00
0/
0!
#120000
0#
0.
02
15
13
10
1/
1!
#130000
1#
0"
1.
0-
01
12
05
14
#140000
0#
0.
02
15
03
00
0/
0!
#150000
1#
1"
1.
1-
11
12
05
04
#160000
0"
0-
01
14
13
10
1/
1!
#170000
1"
0#
1-
0.
02
11
04
15
#180000
0"
1#
0-
1.
12
01
14
05
#190000
1"
1-
11
04
03
00
0/
0!
#210000
0"
0#
0-
0.
02
01
14
15
#220000
1"
1#
1-
1.
12
11
04
05
#230000
0"
0#
0-
0.
02
01
14
15
#240000
1"
1-
11
04
13
10
1/
1!
#250000
1#
1.
12
05
03
00
0/
0!
#260000
0#
0.
02
15
13
10
1/
1!
#270000
1#
0"
1.
0-
01
12
05
14
#280000
0#
1"
0.
1-
11
02
15
04
#290000
0"
0-
01
14
03
00
0/
0!
#320000
1"
1#
1-
1.
12
11
04
05
#340000
0#
0.
02
15
13
10
1/
1!
#350000
1#
1.
12
05
03
00
0/
0!
#360000
0#
0.
02
15
13
10
1/
1!
#380000
0"
0-
01
14
03
00
0/
0!
#390000
1"
1#
1-
1.
12
11
04
05
#410000
0#
0.
02
15
13
10
1/
1!
#420000
1#
0"
1.
0-
01
12
05
14
#460000
0#
0.
02
15
03
00
0/
0!
#470000
1#
1.
12
05
13
10
1/
1!
#480000
0#
0.
02
15
03
00
0/
0!
#490000
1#
1"
1.
1-
11
12
05
04
#500000
0#
0.
02
15
13
10
1/
1!
#510000
1#
0"
1.
0-
01
12
05
14
#520000
1"
1-
11
04
03
00
0/
0!
#550000
0"
0#
0-
0.
02
01
14
15
#560000
1"
1#
1-
1.
12
11
04
05
#570000
0"
0-
01
14
13
10
1/
1!
#580000
1"
0#
1-
0.
02
11
04
15
#600000
0"
0-
01
14
03
00
0/
0!
#610000
1"
1-
11
04
13
10
1/
1!
#620000
0"
1#
0-
1.
12
01
14
05
#660000
1"
1-
11
04
03
00
0/
0!
#670000
0"
0-
01
14
13
10
1/
1!
#680000
1"
0#
1-
0.
02
11
04
15
#690000
0"
0-
01
14
03
00
0/
0!
#700000
1#
1.
12
05
13
10
1/
1!
#720000
0#
0.
02
15
03
00
0/
0!
#730000
1"
1-
11
04
13
10
1/
1!
#740000
0"
1#
0-
1.
12
01
14
05
#750000
1"
1-
11
04
03
00
0/
0!
#760000
0"
0#
0-
0.
02
01
14
15
#770000
1"
1-
11
04
13
10
1/
1!
#800000
1#
1.
12
05
03
00
0/
0!
#810000
0#
0"
0.
0-
01
02
15
14
#820000
1"
1-
11
04
13
10
1/
1!
#830000
0"
0-
01
14
03
00
0/
0!
#840000
1#
1.
12
05
13
10
1/
1!
#850000
1"
1-
11
04
03
00
0/
0!
#860000
0"
0#
0-
0.
02
01
14
15
#870000
1"
1-
11
04
13
10
1/
1!
#880000
0"
1#
0-
1.
12
01
14
05
#890000
1"
1-
11
04
03
00
0/
0!
#900000
0"
0-
01
14
13
10
1/
1!
#920000
1"
0#
1-
0.
02
11
04
15
#940000
0"
1#
0-
1.
12
01
14
05
#950000
0#
0.
02
15
03
00
0/
0!
#960000
1#
1.
12
05
13
10
1/
1!
#970000
1"
1-
11
04
03
00
0/
0!
#980000
0#
0.
02
15
13
10
1/
1!
#990000
0"
0-
01
14
03
00
0/
0!
