Extensor/simulation/qsim/extensor.msim.vcd
$comment
	File created using the following command:
		vcd file extensor.msim.vcd -direction
$end
$date
	Fri Oct 26 22:36:27 2018
$end
$version
	ModelSim Version 10.5b
$end
$timescale
	1ps
$end

$scope module extensor_vhd_vec_tst $end
$var wire 1 ! entrada [7] $end
$var wire 1 " entrada [6] $end
$var wire 1 # entrada [5] $end
$var wire 1 $ entrada [4] $end
$var wire 1 % entrada [3] $end
$var wire 1 & entrada [2] $end
$var wire 1 ' entrada [1] $end
$var wire 1 ( entrada [0] $end
$var wire 1 ) saida [15] $end
$var wire 1 * saida [14] $end
$var wire 1 + saida [13] $end
$var wire 1 , saida [12] $end
$var wire 1 - saida [11] $end
$var wire 1 . saida [10] $end
$var wire 1 / saida [9] $end
$var wire 1 0 saida [8] $end
$var wire 1 1 saida [7] $end
$var wire 1 2 saida [6] $end
$var wire 1 3 saida [5] $end
$var wire 1 4 saida [4] $end
$var wire 1 5 saida [3] $end
$var wire 1 6 saida [2] $end
$var wire 1 7 saida [1] $end
$var wire 1 8 saida [0] $end

$scope module i1 $end
$var wire 1 9 gnd $end
$var wire 1 : vcc $end
$var wire 1 ; unknown $end
$var wire 1 < devoe $end
$var wire 1 = devclrn $end
$var wire 1 > devpor $end
$var wire 1 ? ww_devoe $end
$var wire 1 @ ww_devclrn $end
$var wire 1 A ww_devpor $end
$var wire 1 B ww_entrada [7] $end
$var wire 1 C ww_entrada [6] $end
$var wire 1 D ww_entrada [5] $end
$var wire 1 E ww_entrada [4] $end
$var wire 1 F ww_entrada [3] $end
$var wire 1 G ww_entrada [2] $end
$var wire 1 H ww_entrada [1] $end
$var wire 1 I ww_entrada [0] $end
$var wire 1 J ww_saida [15] $end
$var wire 1 K ww_saida [14] $end
$var wire 1 L ww_saida [13] $end
$var wire 1 M ww_saida [12] $end
$var wire 1 N ww_saida [11] $end
$var wire 1 O ww_saida [10] $end
$var wire 1 P ww_saida [9] $end
$var wire 1 Q ww_saida [8] $end
$var wire 1 R ww_saida [7] $end
$var wire 1 S ww_saida [6] $end
$var wire 1 T ww_saida [5] $end
$var wire 1 U ww_saida [4] $end
$var wire 1 V ww_saida [3] $end
$var wire 1 W ww_saida [2] $end
$var wire 1 X ww_saida [1] $end
$var wire 1 Y ww_saida [0] $end
$var wire 1 Z \saida[0]~output_o\ $end
$var wire 1 [ \saida[1]~output_o\ $end
$var wire 1 \ \saida[2]~output_o\ $end
$var wire 1 ] \saida[3]~output_o\ $end
$var wire 1 ^ \saida[4]~output_o\ $end
$var wire 1 _ \saida[5]~output_o\ $end
$var wire 1 ` \saida[6]~output_o\ $end
$var wire 1 a \saida[7]~output_o\ $end
$var wire 1 b \saida[8]~output_o\ $end
$var wire 1 c \saida[9]~output_o\ $end
$var wire 1 d \saida[10]~output_o\ $end
$var wire 1 e \saida[11]~output_o\ $end
$var wire 1 f \saida[12]~output_o\ $end
$var wire 1 g \saida[13]~output_o\ $end
$var wire 1 h \saida[14]~output_o\ $end
$var wire 1 i \saida[15]~output_o\ $end
$var wire 1 j \entrada[0]~input_o\ $end
$var wire 1 k \entrada[1]~input_o\ $end
$var wire 1 l \entrada[2]~input_o\ $end
$var wire 1 m \entrada[3]~input_o\ $end
$var wire 1 n \entrada[4]~input_o\ $end
$var wire 1 o \entrada[5]~input_o\ $end
$var wire 1 p \entrada[6]~input_o\ $end
$var wire 1 q \entrada[7]~input_o\ $end
$upscope $end
$upscope $end
$enddefinitions $end
#0
$dumpvars
09
1:
x;
1<
1=
1>
1?
1@
1A
1Z
0[
0\
1]
1^
1_
1`
1a
0b
0c
0d
0e
0f
0g
0h
0i
1j
0k
0l
1m
1n
1o
1p
1q
1!
1"
1#
1$
1%
0&
0'
1(
0)
0*
0+
0,
0-
0.
0/
00
11
12
13
14
15
06
07
18
1B
1C
1D
1E
1F
0G
0H
1I
0J
0K
0L
0M
0N
0O
0P
0Q
1R
1S
1T
1U
1V
0W
0X
1Y
$end
#10000
0!
0"
1&
0(
0I
1G
0C
0B
0q
0p
1l
0j
0Z
1\
0`
0a
0Y
1W
0S
0R
08
16
02
01
#20000
1"
0&
0#
0G
0D
1C
1p
0o
0l
0\
0_
1`
0W
0T
1S
06
03
12
#30000
0"
1(
0$
1'
1I
1H
0E
0C
0p
0n
1k
1j
1Z
1[
0^
0`
1Y
1X
0U
0S
18
17
04
02
#40000
1"
1&
1#
0%
1G
0F
1D
1C
1p
1o
0m
1l
1\
0]
1_
1`
1W
0V
1T
1S
16
05
13
12
#50000
0"
0&
0#
1$
0'
0H
0G
1E
0D
0C
0p
0o
1n
0l
0k
0[
0\
1^
0_
0`
0X
0W
1U
0T
0S
07
06
14
03
02
#60000
1#
1'
0(
1!
0I
1H
1D
1B
1q
1o
1k
0j
0Z
1[
1_
1a
0Y
1X
1T
1R
08
17
13
11
#70000
0#
1(
0$
1%
1I
1F
0E
0D
0o
0n
1m
1j
1Z
1]
0^
0_
1Y
1V
0U
0T
18
15
04
03
#80000
1$
0%
0'
0!
1"
0H
0F
1E
1C
0B
0q
1p
1n
0m
0k
0[
0]
1^
1`
0a
0X
0V
1U
1S
0R
07
05
14
12
01
#90000
0(
1&
0I
1G
1l
0j
0Z
1\
0Y
1W
08
16
#100000
1(
0$
1%
1!
1I
1F
0E
1B
1q
0n
1m
1j
1Z
1]
0^
1a
1Y
1V
0U
1R
18
15
04
11
#110000
0(
0&
0I
0G
0l
0j
0Z
0\
0Y
0W
08
06
#120000
1(
1&
0%
1I
1G
0F
0m
1l
1j
1Z
1\
0]
1Y
1W
0V
18
16
05
#130000
0(
0&
1'
0"
1#
0I
1H
0G
1D
0C
0p
1o
0l
1k
0j
0Z
1[
0\
1_
0`
0Y
1X
0W
1T
0S
08
17
06
13
02
#140000
1(
1&
0#
1%
1$
1I
1G
1F
1E
0D
0o
1n
1m
1l
1j
1Z
1\
1]
1^
0_
1Y
1W
1V
1U
0T
18
16
15
14
03
#150000
0&
1#
0'
0!
0H
0G
1D
0B
0q
1o
0l
0k
0[
0\
1_
0a
0X
0W
1T
0R
07
06
13
01
#160000
1&
0(
0$
0I
1G
0E
0n
1l
0j
0Z
1\
0^
0Y
1W
0U
08
16
04
#170000
0&
0#
0%
1"
0G
0F
0D
1C
1p
0o
0m
0l
0\
0]
0_
1`
0W
0V
0T
1S
06
05
03
12
#180000
1%
0"
1!
1F
0C
1B
1q
0p
1m
1]
0`
1a
1V
0S
1R
15
02
11
#190000
1"
0!
1&
1(
1I
1G
1C
0B
0q
1p
1l
1j
1Z
1\
1`
0a
1Y
1W
1S
0R
18
16
12
01
#200000
0"
0&
0(
1$
1'
0I
1H
0G
1E
0C
0p
1n
0l
1k
0j
0Z
1[
0\
1^
0`
0Y
1X
0W
1U
0S
08
17
06
14
02
#210000
1"
1&
0'
1#
0H
1G
1D
1C
1p
1o
1l
0k
0[
1\
1_
1`
0X
1W
1T
1S
07
16
13
12
#220000
0&
1'
0#
1(
0$
1I
1H
0G
0E
0D
0o
0n
0l
1k
1j
1Z
1[
0\
0^
0_
1Y
1X
0W
0U
0T
18
17
06
04
03
#230000
1#
0(
1$
0"
1!
0I
1E
1D
0C
1B
1q
0p
1o
1n
0j
0Z
1^
1_
0`
1a
0Y
1U
1T
0S
1R
08
14
13
02
11
#240000
1(
1"
0!
1&
0'
0%
1I
0H
1G
0F
1C
0B
0q
1p
0m
1l
0k
1j
1Z
0[
1\
0]
1`
0a
1Y
0X
1W
0V
1S
0R
18
07
16
05
12
01
#250000
0(
0"
0#
0$
0I
0E
0D
0C
0p
0o
0n
0j
0Z
0^
0_
0`
0Y
0U
0T
0S
08
04
03
02
#260000
1(
1"
1$
0&
1%
1I
0G
1F
1E
1C
1p
1n
1m
0l
1j
1Z
0\
1]
1^
1`
1Y
0W
1V
1U
1S
18
06
15
14
12
#270000
0"
0$
1#
0E
1D
0C
0p
1o
0n
0^
1_
0`
0U
1T
0S
04
13
02
#280000
1"
1$
0#
1E
0D
1C
1p
0o
1n
1^
0_
1`
1U
0T
1S
14
03
12
#290000
0$
1#
0(
1'
0I
1H
0E
1D
1o
0n
1k
0j
0Z
1[
0^
1_
0Y
1X
0U
1T
08
17
04
13
#300000
0'
0H
0k
0[
0X
07
#310000
1$
0#
1(
0"
0%
1I
0F
1E
0D
0C
0p
0o
1n
0m
1j
1Z
0]
1^
0_
0`
1Y
0V
1U
0T
0S
18
05
14
03
02
#320000
1#
1'
1&
1H
1G
1D
1o
1l
1k
1[
1\
1_
1X
1W
1T
17
16
13
#340000
0&
0$
0(
1%
1!
0I
0G
1F
0E
1B
1q
0n
1m
0l
0j
0Z
0\
1]
0^
1a
0Y
0W
1V
0U
1R
08
06
15
04
11
#350000
1&
1$
0%
0!
0'
1"
0H
1G
0F
1E
1C
0B
0q
1p
1n
0m
1l
0k
0[
1\
0]
1^
1`
0a
0X
1W
0V
1U
1S
0R
07
16
05
14
12
01
#360000
0&
0$
1!
1(
0#
1I
0G
0E
0D
1B
1q
0o
0n
0l
1j
1Z
0\
0^
0_
1a
1Y
0W
0U
0T
1R
18
06
04
03
11
#370000
1&
1$
0(
1'
0I
1H
1G
1E
1n
1l
1k
0j
0Z
1[
1\
1^
0Y
1X
1W
1U
08
17
16
14
#380000
0'
0!
1#
1%
0H
1F
1D
0B
0q
1o
1m
0k
0[
1]
1_
0a
0X
1V
1T
0R
07
15
13
01
#390000
1!
0#
0%
0&
0$
0G
0F
0E
0D
1B
1q
0o
0n
0m
0l
0\
0]
0^
0_
1a
0W
0V
0U
0T
1R
06
05
04
03
11
#400000
0!
1(
1I
0B
0q
1j
1Z
0a
1Y
0R
18
01
#410000
1'
1H
1k
1[
1X
17
#420000
0'
1!
1%
1&
0H
1G
1F
1B
1q
1m
1l
0k
0[
1\
1]
1a
0X
1W
1V
1R
07
16
15
11
#430000
0%
0(
1#
1$
0"
0I
0F
1E
1D
0C
0p
1o
1n
0m
0j
0Z
0]
1^
1_
0`
0Y
0V
1U
1T
0S
08
05
14
13
02
#440000
1%
1'
0&
1H
0G
1F
1m
0l
1k
1[
0\
1]
1X
0W
1V
17
06
15
#450000
0%
0'
1&
1(
0#
0$
1I
0H
1G
0F
0E
0D
0o
0n
0m
1l
0k
1j
1Z
0[
1\
0]
0^
0_
1Y
0X
1W
0V
0U
0T
18
07
16
05
04
03
#460000
1%
1'
1#
1$
1"
0!
1H
1F
1E
1D
1C
0B
0q
1p
1o
1n
1m
1k
1[
1]
1^
1_
1`
0a
1X
1V
1U
1T
1S
0R
17
15
14
13
12
01
#470000
0#
0"
1!
0D
0C
1B
1q
0p
0o
0_
0`
1a
0T
0S
1R
03
02
11
#480000
0$
0&
0(
0I
0G
0E
0n
0l
0j
0Z
0\
0^
0Y
0W
0U
08
06
04
#490000
1(
1#
1"
0%
0'
1I
0H
0F
1D
1C
1p
1o
0m
0k
1j
1Z
0[
0]
1_
1`
1Y
0X
0V
1T
1S
18
07
05
13
12
#500000
1%
1$
0!
1F
1E
0B
0q
1n
1m
1]
1^
0a
1V
1U
0R
15
14
01
#510000
0$
1!
0"
1&
1G
0E
0C
1B
1q
0p
0n
1l
1\
0^
0`
1a
1W
0U
0S
1R
16
04
02
11
#520000
1"
0&
0(
0#
0I
0G
0D
1C
1p
0o
0l
0j
0Z
0\
0_
1`
0Y
0W
0T
1S
08
06
03
12
#530000
1(
1#
1$
0%
1I
0F
1E
1D
1o
1n
0m
1j
1Z
0]
1^
1_
1Y
0V
1U
1T
18
05
14
13
#540000
0$
1%
1&
0!
1G
1F
0E
0B
0q
0n
1m
1l
1\
1]
0^
0a
1W
1V
0U
0R
16
15
04
01
#550000
1!
0(
0"
1'
0I
1H
0C
1B
1q
0p
1k
0j
0Z
1[
0`
1a
0Y
1X
0S
1R
08
17
02
11
#560000
1(
1"
0'
0#
1I
0H
0D
1C
1p
0o
0k
1j
1Z
0[
0_
1`
1Y
0X
0T
1S
18
07
03
12
#570000
0(
0!
0I
0B
0q
0j
0Z
0a
0Y
0R
08
01
#580000
1!
1#
0%
0&
0G
0F
1D
1B
1q
1o
0m
0l
0\
0]
1_
1a
0W
0V
1T
1R
06
05
13
11
#590000
0!
1%
1(
0"
1'
1$
1I
1H
1F
1E
0C
0B
0q
0p
1n
1m
1k
1j
1Z
1[
1]
1^
0`
0a
1Y
1X
1V
1U
0S
0R
18
17
15
14
02
01
#600000
0%
0$
0#
0F
0E
0D
0o
0n
0m
0]
0^
0_
0V
0U
0T
05
04
03
#610000
1%
1$
0(
0'
1&
0I
0H
1G
1F
1E
1n
1m
1l
0k
0j
0Z
0[
1\
1]
1^
0Y
0X
1W
1V
1U
08
07
16
15
14
#620000
0%
1(
0&
1#
1!
1I
0G
0F
1D
1B
1q
1o
0m
0l
1j
1Z
0\
0]
1_
1a
1Y
0W
0V
1T
1R
18
06
05
13
11
#630000
0(
0!
0I
0B
0q
0j
0Z
0a
0Y
0R
08
01
#640000
1(
1!
1&
0$
1'
1"
1I
1H
1G
0E
1C
1B
1q
1p
0n
1l
1k
1j
1Z
1[
1\
0^
1`
1a
1Y
1X
1W
0U
1S
1R
18
17
16
04
12
11
#650000
0(
0!
1$
0'
0"
0#
0I
0H
1E
0D
0C
0B
0q
0p
0o
1n
0k
0j
0Z
0[
1^
0_
0`
0a
0Y
0X
1U
0T
0S
0R
08
07
14
03
02
01
#660000
1(
1!
1'
1#
0&
1I
1H
0G
1D
1B
1q
1o
0l
1k
1j
1Z
1[
0\
1_
1a
1Y
1X
0W
1T
1R
18
17
06
13
11
#670000
0'
1&
1%
0H
1G
1F
1m
1l
0k
0[
1\
1]
0X
1W
1V
07
16
15
#680000
0&
0%
0!
0#
1"
0G
0F
0D
1C
0B
0q
1p
0o
0m
0l
0\
0]
0_
1`
0a
0W
0V
0T
1S
0R
06
05
03
12
01
#690000
1&
1!
1#
0"
1'
0(
0I
1H
1G
1D
0C
1B
1q
0p
1o
1l
1k
0j
0Z
1[
1\
1_
0`
1a
0Y
1X
1W
1T
0S
1R
08
17
16
13
02
11
#700000
1"
0'
1(
1%
0$
1I
0H
1F
0E
1C
1p
0n
1m
0k
1j
1Z
0[
1]
0^
1`
1Y
0X
1V
0U
1S
18
07
15
04
12
#710000
1'
0&
0!
0#
1H
0G
0D
0B
0q
0o
0l
1k
1[
0\
0_
0a
1X
0W
0T
0R
17
06
03
01
#720000
1&
1#
0"
0(
1$
0I
1G
1E
1D
0C
0p
1o
1n
1l
0j
0Z
1\
1^
1_
0`
0Y
1W
1U
1T
0S
08
16
14
13
02
#730000
0&
1"
0$
1!
0%
0G
0F
0E
1C
1B
1q
1p
0n
0m
0l
0\
0]
0^
1`
1a
0W
0V
0U
1S
1R
06
05
04
12
11
#740000
1&
0"
1$
1%
1(
0'
1I
0H
1G
1F
1E
0C
0p
1n
1m
1l
0k
1j
1Z
0[
1\
1]
1^
0`
1Y
0X
1W
1V
1U
0S
18
07
16
15
14
02
#750000
0&
1"
0$
0%
0(
0!
0#
0I
0G
0F
0E
0D
1C
0B
0q
1p
0o
0n
0m
0l
0j
0Z
0\
0]
0^
0_
1`
0a
0Y
0W
0V
0U
0T
1S
0R
08
06
05
04
03
12
01
#760000
1$
1%
1(
1!
1'
1I
1H
1F
1E
1B
1q
1n
1m
1k
1j
1Z
1[
1]
1^
1a
1Y
1X
1V
1U
1R
18
17
15
14
11
#770000
0!
1#
1D
0B
0q
1o
1_
0a
1T
0R
13
01
#780000
1!
0#
0$
0%
0(
1&
0"
0I
1G
0F
0E
0D
0C
1B
1q
0p
0o
0n
0m
1l
0j
0Z
1\
0]
0^
0_
0`
1a
0Y
1W
0V
0U
0T
0S
1R
08
16
05
04
03
02
11
#790000
1"
1C
1p
1`
1S
12
#800000
0"
0!
1#
1$
1%
1(
0'
1I
0H
1F
1E
1D
0C
0B
0q
0p
1o
1n
1m
0k
1j
1Z
0[
1]
1^
1_
0`
0a
1Y
0X
1V
1U
1T
0S
0R
18
07
15
14
13
02
01
#810000
1!
0$
0E
1B
1q
0n
0^
1a
0U
1R
04
11
#820000
0!
1$
1"
0#
0%
1'
1H
0F
1E
0D
1C
0B
0q
1p
0o
1n
0m
1k
1[
0]
1^
0_
1`
0a
1X
0V
1U
0T
1S
0R
17
05
14
03
12
01
#830000
1!
1#
1D
1B
1q
1o
1_
1a
1T
1R
13
11
#840000
0#
0$
0"
0E
0D
0C
0p
0o
0n
0^
0_
0`
0U
0T
0S
04
03
02
#850000
1#
1$
1"
0!
1%
0'
0&
0H
0G
1F
1E
1D
1C
0B
0q
1p
1o
1n
1m
0l
0k
0[
0\
1]
1^
1_
1`
0a
0X
0W
1V
1U
1T
1S
0R
07
06
15
14
13
12
01
#860000
1!
0%
0F
1B
1q
0m
0]
1a
0V
1R
05
11
#870000
1%
0#
1&
0(
0I
1G
1F
0D
0o
1m
1l
0j
0Z
1\
1]
0_
0Y
1W
1V
0T
08
16
15
03
#880000
1#
1(
0$
1I
0E
1D
1o
0n
1j
1Z
0^
1_
1Y
0U
1T
18
04
13
#890000
0(
0%
0&
0I
0G
0F
0m
0l
0j
0Z
0\
0]
0Y
0W
0V
08
06
05
#900000
1(
0#
0"
1I
0D
0C
0p
0o
1j
1Z
0_
0`
1Y
0T
0S
18
03
02
#910000
0(
1"
1$
0!
0I
1E
1C
0B
0q
1p
1n
0j
0Z
1^
1`
0a
0Y
1U
1S
0R
08
14
12
01
#920000
1(
0$
1!
1#
1%
1I
1F
0E
1D
1B
1q
1o
0n
1m
1j
1Z
1]
0^
1_
1a
1Y
1V
0U
1T
1R
18
15
04
13
11
#930000
0(
1$
0!
0#
0%
1&
0I
1G
0F
1E
0D
0B
0q
0o
1n
0m
1l
0j
0Z
1\
0]
1^
0_
0a
0Y
1W
0V
1U
0T
0R
08
16
05
14
03
01
#940000
1(
1!
1%
0"
1'
1I
1H
1F
0C
1B
1q
0p
1m
1k
1j
1Z
1[
1]
0`
1a
1Y
1X
1V
0S
1R
18
17
15
02
11
#950000
1"
0'
0$
1#
0H
0E
1D
1C
1p
1o
0n
0k
0[
0^
1_
1`
0X
0U
1T
1S
07
04
13
12
#960000
1'
0!
0%
0&
1H
0G
0F
0B
0q
0m
0l
1k
1[
0\
0]
0a
1X
0W
0V
0R
17
06
05
01
#970000
1!
1%
1&
1$
0#
1G
1F
1E
0D
1B
1q
0o
1n
1m
1l
1\
1]
1^
0_
1a
1W
1V
1U
0T
1R
16
15
14
03
11
#980000
0!
1#
0"
0(
0I
1D
0C
0B
0q
0p
1o
0j
0Z
1_
0`
0a
0Y
1T
0S
0R
08
13
02
01
#990000
1!
1"
1(
0%
1I
0F
1C
1B
1q
1p
0m
1j
1Z
0]
1`
1a
1Y
0V
1S
1R
18
05
12
11
