Somador_16_bits/simulation/qsim/sum.msim.vcd
$comment
	File created using the following command:
		vcd file sum.msim.vcd -direction
$end
$date
	Fri Oct 26 21:59:01 2018
$end
$version
	ModelSim Version 10.5b
$end
$timescale
	1ps
$end

$scope module sum_vhd_vec_tst $end
$var wire 1 ! entrada1 [15] $end
$var wire 1 " entrada1 [14] $end
$var wire 1 # entrada1 [13] $end
$var wire 1 $ entrada1 [12] $end
$var wire 1 % entrada1 [11] $end
$var wire 1 & entrada1 [10] $end
$var wire 1 ' entrada1 [9] $end
$var wire 1 ( entrada1 [8] $end
$var wire 1 ) entrada1 [7] $end
$var wire 1 * entrada1 [6] $end
$var wire 1 + entrada1 [5] $end
$var wire 1 , entrada1 [4] $end
$var wire 1 - entrada1 [3] $end
$var wire 1 . entrada1 [2] $end
$var wire 1 / entrada1 [1] $end
$var wire 1 0 entrada1 [0] $end
$var wire 1 1 entrada2 [15] $end
$var wire 1 2 entrada2 [14] $end
$var wire 1 3 entrada2 [13] $end
$var wire 1 4 entrada2 [12] $end
$var wire 1 5 entrada2 [11] $end
$var wire 1 6 entrada2 [10] $end
$var wire 1 7 entrada2 [9] $end
$var wire 1 8 entrada2 [8] $end
$var wire 1 9 entrada2 [7] $end
$var wire 1 : entrada2 [6] $end
$var wire 1 ; entrada2 [5] $end
$var wire 1 < entrada2 [4] $end
$var wire 1 = entrada2 [3] $end
$var wire 1 > entrada2 [2] $end
$var wire 1 ? entrada2 [1] $end
$var wire 1 @ entrada2 [0] $end
$var wire 1 A saida [15] $end
$var wire 1 B saida [14] $end
$var wire 1 C saida [13] $end
$var wire 1 D saida [12] $end
$var wire 1 E saida [11] $end
$var wire 1 F saida [10] $end
$var wire 1 G saida [9] $end
$var wire 1 H saida [8] $end
$var wire 1 I saida [7] $end
$var wire 1 J saida [6] $end
$var wire 1 K saida [5] $end
$var wire 1 L saida [4] $end
$var wire 1 M saida [3] $end
$var wire 1 N saida [2] $end
$var wire 1 O saida [1] $end
$var wire 1 P saida [0] $end

$scope module i1 $end
$var wire 1 Q gnd $end
$var wire 1 R vcc $end
$var wire 1 S unknown $end
$var wire 1 T devoe $end
$var wire 1 U devclrn $end
$var wire 1 V devpor $end
$var wire 1 W ww_devoe $end
$var wire 1 X ww_devclrn $end
$var wire 1 Y ww_devpor $end
$var wire 1 Z ww_entrada1 [15] $end
$var wire 1 [ ww_entrada1 [14] $end
$var wire 1 \ ww_entrada1 [13] $end
$var wire 1 ] ww_entrada1 [12] $end
$var wire 1 ^ ww_entrada1 [11] $end
$var wire 1 _ ww_entrada1 [10] $end
$var wire 1 ` ww_entrada1 [9] $end
$var wire 1 a ww_entrada1 [8] $end
$var wire 1 b ww_entrada1 [7] $end
$var wire 1 c ww_entrada1 [6] $end
$var wire 1 d ww_entrada1 [5] $end
$var wire 1 e ww_entrada1 [4] $end
$var wire 1 f ww_entrada1 [3] $end
$var wire 1 g ww_entrada1 [2] $end
$var wire 1 h ww_entrada1 [1] $end
$var wire 1 i ww_entrada1 [0] $end
$var wire 1 j ww_entrada2 [15] $end
$var wire 1 k ww_entrada2 [14] $end
$var wire 1 l ww_entrada2 [13] $end
$var wire 1 m ww_entrada2 [12] $end
$var wire 1 n ww_entrada2 [11] $end
$var wire 1 o ww_entrada2 [10] $end
$var wire 1 p ww_entrada2 [9] $end
$var wire 1 q ww_entrada2 [8] $end
$var wire 1 r ww_entrada2 [7] $end
$var wire 1 s ww_entrada2 [6] $end
$var wire 1 t ww_entrada2 [5] $end
$var wire 1 u ww_entrada2 [4] $end
$var wire 1 v ww_entrada2 [3] $end
$var wire 1 w ww_entrada2 [2] $end
$var wire 1 x ww_entrada2 [1] $end
$var wire 1 y ww_entrada2 [0] $end
$var wire 1 z ww_saida [15] $end
$var wire 1 { ww_saida [14] $end
$var wire 1 | ww_saida [13] $end
$var wire 1 } ww_saida [12] $end
$var wire 1 ~ ww_saida [11] $end
$var wire 1 !! ww_saida [10] $end
$var wire 1 "! ww_saida [9] $end
$var wire 1 #! ww_saida [8] $end
$var wire 1 $! ww_saida [7] $end
$var wire 1 %! ww_saida [6] $end
$var wire 1 &! ww_saida [5] $end
$var wire 1 '! ww_saida [4] $end
$var wire 1 (! ww_saida [3] $end
$var wire 1 )! ww_saida [2] $end
$var wire 1 *! ww_saida [1] $end
$var wire 1 +! ww_saida [0] $end
$var wire 1 ,! \saida[0]~output_o\ $end
$var wire 1 -! \saida[1]~output_o\ $end
$var wire 1 .! \saida[2]~output_o\ $end
$var wire 1 /! \saida[3]~output_o\ $end
$var wire 1 0! \saida[4]~output_o\ $end
$var wire 1 1! \saida[5]~output_o\ $end
$var wire 1 2! \saida[6]~output_o\ $end
$var wire 1 3! \saida[7]~output_o\ $end
$var wire 1 4! \saida[8]~output_o\ $end
$var wire 1 5! \saida[9]~output_o\ $end
$var wire 1 6! \saida[10]~output_o\ $end
$var wire 1 7! \saida[11]~output_o\ $end
$var wire 1 8! \saida[12]~output_o\ $end
$var wire 1 9! \saida[13]~output_o\ $end
$var wire 1 :! \saida[14]~output_o\ $end
$var wire 1 ;! \saida[15]~output_o\ $end
$var wire 1 <! \entrada2[0]~input_o\ $end
$var wire 1 =! \entrada1[0]~input_o\ $end
$var wire 1 >! \Add0~1_sumout\ $end
$var wire 1 ?! \entrada2[1]~input_o\ $end
$var wire 1 @! \entrada1[1]~input_o\ $end
$var wire 1 A! \Add0~2\ $end
$var wire 1 B! \Add0~5_sumout\ $end
$var wire 1 C! \entrada2[2]~input_o\ $end
$var wire 1 D! \entrada1[2]~input_o\ $end
$var wire 1 E! \Add0~6\ $end
$var wire 1 F! \Add0~9_sumout\ $end
$var wire 1 G! \entrada2[3]~input_o\ $end
$var wire 1 H! \entrada1[3]~input_o\ $end
$var wire 1 I! \Add0~10\ $end
$var wire 1 J! \Add0~13_sumout\ $end
$var wire 1 K! \entrada2[4]~input_o\ $end
$var wire 1 L! \entrada1[4]~input_o\ $end
$var wire 1 M! \Add0~14\ $end
$var wire 1 N! \Add0~17_sumout\ $end
$var wire 1 O! \entrada2[5]~input_o\ $end
$var wire 1 P! \entrada1[5]~input_o\ $end
$var wire 1 Q! \Add0~18\ $end
$var wire 1 R! \Add0~21_sumout\ $end
$var wire 1 S! \entrada2[6]~input_o\ $end
$var wire 1 T! \entrada1[6]~input_o\ $end
$var wire 1 U! \Add0~22\ $end
$var wire 1 V! \Add0~25_sumout\ $end
$var wire 1 W! \entrada2[7]~input_o\ $end
$var wire 1 X! \entrada1[7]~input_o\ $end
$var wire 1 Y! \Add0~26\ $end
$var wire 1 Z! \Add0~29_sumout\ $end
$var wire 1 [! \entrada2[8]~input_o\ $end
$var wire 1 \! \entrada1[8]~input_o\ $end
$var wire 1 ]! \Add0~30\ $end
$var wire 1 ^! \Add0~33_sumout\ $end
$var wire 1 _! \entrada2[9]~input_o\ $end
$var wire 1 `! \entrada1[9]~input_o\ $end
$var wire 1 a! \Add0~34\ $end
$var wire 1 b! \Add0~37_sumout\ $end
$var wire 1 c! \entrada2[10]~input_o\ $end
$var wire 1 d! \entrada1[10]~input_o\ $end
$var wire 1 e! \Add0~38\ $end
$var wire 1 f! \Add0~41_sumout\ $end
$var wire 1 g! \entrada2[11]~input_o\ $end
$var wire 1 h! \entrada1[11]~input_o\ $end
$var wire 1 i! \Add0~42\ $end
$var wire 1 j! \Add0~45_sumout\ $end
$var wire 1 k! \entrada2[12]~input_o\ $end
$var wire 1 l! \entrada1[12]~input_o\ $end
$var wire 1 m! \Add0~46\ $end
$var wire 1 n! \Add0~49_sumout\ $end
$var wire 1 o! \entrada2[13]~input_o\ $end
$var wire 1 p! \entrada1[13]~input_o\ $end
$var wire 1 q! \Add0~50\ $end
$var wire 1 r! \Add0~53_sumout\ $end
$var wire 1 s! \entrada2[14]~input_o\ $end
$var wire 1 t! \entrada1[14]~input_o\ $end
$var wire 1 u! \Add0~54\ $end
$var wire 1 v! \Add0~57_sumout\ $end
$var wire 1 w! \entrada2[15]~input_o\ $end
$var wire 1 x! \entrada1[15]~input_o\ $end
$var wire 1 y! \Add0~58\ $end
$var wire 1 z! \Add0~61_sumout\ $end
$var wire 1 {! \ALT_INV_entrada1[15]~input_o\ $end
$var wire 1 |! \ALT_INV_entrada2[15]~input_o\ $end
$var wire 1 }! \ALT_INV_entrada1[14]~input_o\ $end
$var wire 1 ~! \ALT_INV_entrada2[14]~input_o\ $end
$var wire 1 !" \ALT_INV_entrada1[13]~input_o\ $end
$var wire 1 "" \ALT_INV_entrada2[13]~input_o\ $end
$var wire 1 #" \ALT_INV_entrada1[12]~input_o\ $end
$var wire 1 $" \ALT_INV_entrada2[12]~input_o\ $end
$var wire 1 %" \ALT_INV_entrada1[11]~input_o\ $end
$var wire 1 &" \ALT_INV_entrada2[11]~input_o\ $end
$var wire 1 '" \ALT_INV_entrada1[10]~input_o\ $end
$var wire 1 (" \ALT_INV_entrada2[10]~input_o\ $end
$var wire 1 )" \ALT_INV_entrada1[9]~input_o\ $end
$var wire 1 *" \ALT_INV_entrada2[9]~input_o\ $end
$var wire 1 +" \ALT_INV_entrada1[8]~input_o\ $end
$var wire 1 ," \ALT_INV_entrada2[8]~input_o\ $end
$var wire 1 -" \ALT_INV_entrada1[7]~input_o\ $end
$var wire 1 ." \ALT_INV_entrada2[7]~input_o\ $end
$var wire 1 /" \ALT_INV_entrada1[6]~input_o\ $end
$var wire 1 0" \ALT_INV_entrada2[6]~input_o\ $end
$var wire 1 1" \ALT_INV_entrada1[5]~input_o\ $end
$var wire 1 2" \ALT_INV_entrada2[5]~input_o\ $end
$var wire 1 3" \ALT_INV_entrada1[4]~input_o\ $end
$var wire 1 4" \ALT_INV_entrada2[4]~input_o\ $end
$var wire 1 5" \ALT_INV_entrada1[3]~input_o\ $end
$var wire 1 6" \ALT_INV_entrada2[3]~input_o\ $end
$var wire 1 7" \ALT_INV_entrada1[2]~input_o\ $end
$var wire 1 8" \ALT_INV_entrada2[2]~input_o\ $end
$var wire 1 9" \ALT_INV_entrada1[1]~input_o\ $end
$var wire 1 :" \ALT_INV_entrada2[1]~input_o\ $end
$var wire 1 ;" \ALT_INV_entrada1[0]~input_o\ $end
$var wire 1 <" \ALT_INV_entrada2[0]~input_o\ $end
$upscope $end
$upscope $end
$enddefinitions $end
#0
$dumpvars
0Q
1R
xS
1T
1U
1V
1W
1X
1Y
0,!
0-!
1.!
1/!
00!
01!
02!
13!
14!
15!
16!
17!
08!
19!
1:!
0;!
0<!
0=!
0>!
1?!
1@!
0A!
0B!
1C!
1D!
1E!
1F!
0G!
0H!
1I!
1J!
0K!
0L!
0M!
0N!
0O!
0P!
0Q!
0R!
0S!
0T!
0U!
0V!
1W!
0X!
0Y!
1Z!
1[!
0\!
0]!
1^!
0_!
1`!
0a!
1b!
1c!
0d!
0e!
1f!
1g!
0h!
0i!
1j!
1k!
1l!
0m!
0n!
0o!
0p!
1q!
1r!
0s!
1t!
0u!
1v!
0w!
0x!
0y!
0z!
1{!
1|!
0}!
1~!
1!"
1""
0#"
0$"
1%"
0&"
1'"
0("
0)"
1*"
1+"
0,"
1-"
0."
1/"
10"
11"
12"
13"
14"
15"
16"
07"
08"
09"
0:"
1;"
1<"
0!
1"
0#
1$
0%
0&
1'
0(
0)
0*
0+
0,
0-
1.
1/
00
01
02
03
14
15
16
07
18
19
0:
0;
0<
0=
1>
1?
0@
0A
1B
1C
0D
1E
1F
1G
1H
1I
0J
0K
0L
1M
1N
0O
0P
0Z
1[
0\
1]
0^
0_
1`
0a
0b
0c
0d
0e
0f
1g
1h
0i
0j
0k
0l
1m
1n
1o
0p
1q
1r
0s
0t
0u
0v
1w
1x
0y
0z
1{
1|
0}
1~
1!!
1"!
1#!
1$!
0%!
0&!
0'!
1(!
1)!
0*!
0+!
$end
#10000
1!
1#
0$
1&
0'
1)
1,
10
11
05
08
1:
1=
0>
0?
1@
1i
1e
1b
0`
1_
0]
1\
1Z
1y
0x
0w
1v
1s
0q
0n
1j
1w!
0g!
0[!
1S!
1G!
0C!
0?!
1<!
1x!
1p!
0l!
1d!
0`!
1X!
1L!
1=!
0;"
03"
0-"
1)"
0'"
1#"
0!"
0{!
0<"
1:"
18"
06"
00"
1,"
1&"
0|!
0j!
0^!
1V!
0J!
1M!
0F!
1B!
0E!
0r!
1u!
1n!
0q!
0f!
1i!
0b!
0Z!
1]!
1N!
1A!
0B!
1E!
1^!
1j!
1r!
0u!
0v!
1y!
1F!
0I!
0N!
1Q!
1R!
1J!
0M!
1z!
1v!
0y!
0F!
1I!
10!
03!
05!
06!
18!
09!
1-!
0.!
0/!
12!
04!
07!
0J!
1M!
0z!
1N!
0Q!
1'!
0$!
0"!
0!!
1}
0|
1*!
0)!
0(!
1%!
0#!
0~
00!
1.!
0:!
19!
17!
14!
0-!
1O
0N
0M
1L
1J
0I
0H
0G
0F
0E
1D
0C
0R!
0N!
1Q!
0'!
1)!
0{
1|
1~
1#!
0*!
0.!
1:!
1;!
1/!
11!
0O
1N
0L
1H
1E
1C
0B
1R!
0)!
1{
1z
1(!
1&!
10!
0;!
0/!
0N
1M
1K
1B
1A
1'!
0z
0(!
00!
01!
0M
1L
0A
0'!
0&!
11!
0L
0K
1&!
1K
#20000
0!
0)
0=
1?
1%
1(
1*
1+
0.
12
13
04
06
09
1;
0g
1d
1c
0b
1a
1^
0Z
1x
0v
1t
0r
0o
0m
1l
1k
1s!
1o!
0k!
0c!
0W!
1O!
0G!
1?!
0x!
1h!
1\!
0X!
1T!
1P!
0D!
17"
01"
0/"
1-"
0+"
0%"
1{!
0:"
16"
02"
1."
1("
1$"
0""
0~!
0v!
1y!
0r!
1u!
0n!
1f!
0i!
1J!
0M!
1B!
1z!
0j!
1m!
0^!
1a!
0]!
0V!
1Y!
1U!
1F!
0I!
0J!
1V!
1Z!
1^!
0a!
1b!
1n!
1N!
0Q!
1j!
0m!
1v!
0z!
0n!
0R!
0b!
1.!
02!
04!
07!
1;!
1-!
1/!
16!
08!
09!
0:!
1)!
0%!
0#!
0~
1z
1*!
1(!
1!!
0}
0|
0{
0;!
1:!
17!
10!
18!
15!
14!
13!
12!
0/!
1O
1N
1M
0J
0H
1F
0E
0D
0C
0B
1A
0z
1{
1~
1'!
1}
1"!
1#!
1$!
1%!
0(!
05!
01!
08!
0M
1L
1J
1I
1H
1G
1E
1D
1B
0A
0"!
0&!
0}
0K
0G
0D
#30000
1!
1=
0?
0%
0(
0*
02
14
0#
00
0:
1>
0@
0"
0i
0c
0a
0^
0\
0[
1Z
0y
0x
1w
1v
0s
1m
0k
0s!
1k!
0S!
1G!
1C!
0?!
0<!
1x!
0t!
0p!
0h!
0\!
0T!
0=!
1;"
1/"
1+"
1%"
1!"
1}!
0{!
1<"
1:"
08"
06"
10"
0$"
1~!
1n!
1J!
0F!
1I!
0B!
1z!
0y!
1r!
0u!
0j!
0^!
0Y!
0A!
1B!
0E!
0Z!
0v!
0z!
0J!
1M!
0N!
1Q!
1F!
0I!
04!
07!
19!
1;!
0-!
0.!
1/!
18!
1J!
0M!
1R!
0#!
0~
1|
1z
0*!
0)!
1(!
1}
0/!
0;!
0:!
03!
1-!
0O
0N
1M
0H
0E
1D
1C
1A
1N!
0Q!
0(!
0z
0{
0$!
1*!
1.!
00!
1O
0M
0I
0B
0A
0R!
1)!
0'!
11!
1/!
1N
0L
1&!
1(!
10!
1M
1K
1'!
01!
1L
0&!
0K
#40000
0!
1?
1%
1(
04
10
1@
1)
03
16
19
1$
0&
01
15
18
1i
1b
1a
0_
1^
1]
0Z
1y
1x
1r
1q
1o
1n
0m
0l
0j
0w!
0o!
0k!
1g!
1c!
1[!
1W!
1?!
1<!
0x!
1l!
1h!
0d!
1\!
1X!
1=!
0;"
0-"
0+"
1'"
0%"
0#"
1{!
0<"
0:"
0."
0,"
0("
0&"
1$"
1""
1|!
0r!
0B!
1E!
1m!
1a!
1]!
1A!
1B!
1^!
1b!
0n!
1q!
0F!
1I!
0J!
1M!
1r!
0-!
09!
0N!
1Q!
0*!
0|
0.!
08!
15!
14!
1-!
0O
0C
1R!
0)!
0}
1"!
1#!
1*!
19!
0/!
1O
0N
1H
1G
0D
1|
0(!
00!
0M
1C
0'!
11!
0L
1&!
1K
#50000
1!
0?
0%
0(
14
00
0@
1&
05
1*
1:
0>
1.
0;
0,
0/
1<
0i
0h
1g
0e
1c
0a
1_
0^
1Z
0y
0x
0w
1u
0t
1s
0n
1m
1k!
0g!
1S!
0O!
1K!
0C!
0?!
0<!
1x!
0h!
1d!
0\!
1T!
0L!
1D!
0@!
0=!
1;"
19"
07"
13"
0/"
1+"
0'"
1%"
0{!
1<"
1:"
18"
04"
12"
00"
1&"
0$"
1n!
0R!
1z!
0m!
0f!
1i!
0^!
1Y!
0E!
0A!
0B!
1F!
0I!
1Z!
1j!
0n!
1J!
0M!
04!
06!
1;!
01!
18!
1N!
0Q!
0#!
0!!
1z
0&!
1}
08!
17!
13!
1.!
0-!
0K
0H
0F
1D
1A
1R!
0U!
0}
1~
1$!
1)!
0*!
1/!
0O
1N
1I
1E
0D
0V!
1(!
10!
1M
1'!
11!
1L
1&!
02!
1K
0%!
0J
#60000
04
1@
15
0*
1>
0<
06
0$
0=
12
1#
1"
0+
1'
1y
1w
0v
0u
0o
1n
0m
1k
0d
0c
1`
0]
1\
1[
1t!
1p!
0l!
1`!
0T!
0P!
1s!
0k!
1g!
0c!
0K!
0G!
1C!
1<!
0<"
08"
16"
14"
1("
0&"
1$"
0~!
11"
1/"
0)"
1#"
0!"
0}!
0r!
1u!
0b!
1e!
1V!
0Y!
0R!
1y!
0q!
0j!
1m!
1f!
0i!
0N!
0J!
0F!
1I!
1>!
1J!
1j!
0m!
1n!
1r!
0u!
0z!
0Z!
0f!
1i!
1v!
0j!
1m!
0v!
0n!
1,!
0.!
0/!
00!
16!
07!
01!
12!
05!
09!
1n!
1+!
0)!
0(!
0'!
1!!
0~
0&!
1%!
0"!
0|
1:!
06!
03!
0;!
19!
18!
17!
1/!
1P
0N
0M
0L
0K
1J
0G
1F
0E
0C
1{
0!!
0$!
0z
1|
1}
1~
1(!
08!
0:!
07!
1M
0I
0F
1E
1D
1C
1B
0A
0}
0{
0~
18!
0E
0D
0B
1}
1D
#70000
14
1<
16
1$
0"
1+
1?
1%
0&
0:
0)
13
11
17
1x
1u
0s
1p
1o
1m
1l
1j
1d
0b
0_
1^
1]
0[
0t!
1l!
1h!
0d!
0X!
1P!
1w!
1o!
1k!
1c!
1_!
0S!
1K!
1?!
0:"
04"
10"
0*"
0("
0$"
0""
0|!
01"
1-"
1'"
0%"
0#"
1}!
1v!
0y!
1j!
1Z!
0]!
1R!
1z!
0r!
1u!
1q!
1b!
0V!
1N!
1B!
1r!
0v!
1y!
1^!
0a!
0z!
0b!
1z!
1-!
10!
02!
15!
09!
1;!
11!
13!
17!
1:!
1*!
1'!
0%!
1"!
0|
1z
1&!
1$!
1~
1{
0;!
14!
0:!
19!
1O
1L
1K
0J
1I
1G
1E
0C
1B
1A
0z
1#!
0{
1|
1;!
05!
1H
1C
0B
0A
1z
0"!
0G
1A
#80000
1"
0%
01
0@
1*
1=
0#
0.
1;
1,
1/
09
08
1h
0g
1e
1c
0^
0\
1[
0y
1v
1t
0r
0q
0j
0w!
0[!
0W!
1O!
1G!
0<!
1t!
0p!
0h!
1T!
1L!
0D!
1@!
09"
17"
03"
0/"
1%"
1!"
0}!
1<"
06"
02"
1."
1,"
1|!
0z!
0^!
0Z!
0R!
1U!
0J!
1M!
0>!
1v!
0r!
0j!
1V!
0N!
1Q!
1F!
0I!
0B!
1E!
0F!
1I!
1J!
0M!
1R!
1N!
0V!
1Y!
1Z!
0N!
0J!
1M!
0-!
1.!
00!
12!
07!
09!
1:!
0,!
0/!
01!
03!
04!
0;!
1N!
0*!
1)!
0'!
1%!
0~
0|
1{
0+!
0(!
0&!
0$!
0#!
0z
02!
10!
11!
1/!
0.!
0P
0O
1N
0M
0L
0K
1J
0I
0H
0E
0C
1B
0A
0%!
1'!
1&!
1(!
0)!
0/!
00!
13!
0N
1M
1L
1K
0J
0(!
0'!
1$!
10!
0M
0L
1I
1'!
1L
#90000
1@
0=
1#
1.
0,
0/
19
0$
0+
1)
03
07
0>
0!
10
1-
1y
0w
0v
1r
0p
0l
1i
0h
1g
1f
0e
0d
1b
0]
1\
0Z
0x!
1p!
0l!
1X!
0P!
0L!
1H!
1D!
0@!
1=!
0o!
0_!
1W!
0G!
0C!
1<!
0<"
18"
16"
0."
1*"
1""
0;"
19"
07"
05"
13"
11"
0-"
1#"
0!"
1{!
1z!
0n!
0R!
0N!
1B!
0E!
1b!
0e!
1]!
1A!
0B!
1E!
1^!
1f!
0i!
1F!
0I!
1J!
0M!
1j!
0m!
0F!
1I!
15!
1-!
00!
01!
08!
1;!
0J!
1M!
1n!
0q!
1N!
0Q!
1"!
1*!
0'!
0&!
0}
1z
1.!
16!
14!
0-!
1O
0L
0K
1G
0D
1A
1R!
0U!
1r!
0u!
0N!
1Q!
1)!
1!!
1#!
0*!
0.!
17!
1/!
0O
1N
1H
1F
0R!
1U!
0v!
1V!
0Y!
0)!
1~
1(!
10!
18!
0/!
0N
1M
1E
0Z!
0V!
1Y!
1'!
1}
0(!
00!
19!
11!
0M
1L
1D
1Z!
0'!
1|
1&!
12!
0:!
01!
0L
1K
1C
1%!
0{
0&!
02!
03!
0K
1J
0B
0%!
0$!
13!
0J
0I
1$!
1I
#100000
0@
1=
1+
0)
1>
1!
00
0;
18
04
0<
0?
1:
02
0y
0x
1w
1v
0u
0t
1s
1q
0m
0k
0i
1d
0b
1Z
1x!
0X!
1P!
0=!
0s!
0k!
1[!
1S!
0O!
0K!
1G!
1C!
0?!
0<!
1<"
1:"
08"
06"
14"
12"
00"
0,"
1$"
1~!
1;"
01"
1-"
0{!
0z!
0Z!
1v!
0y!
0n!
0^!
1a!
1V!
1N!
0Q!
1J!
1F!
1B!
0E!
0A!
0B!
0F!
1R!
0U!
0b!
1e!
1z!
0f!
1i!
0V!
1-!
1.!
1/!
10!
12!
04!
08!
1:!
03!
0;!
0j!
1m!
1*!
1)!
1(!
1'!
1%!
0#!
0}
1{
0$!
0z
1;!
05!
11!
0.!
0-!
1O
1N
1M
1L
1J
0I
0H
0D
1B
0A
1n!
1z
0"!
1&!
0)!
0*!
02!
06!
0O
0N
1K
0G
1A
0%!
0!!
07!
0J
0F
0~
18!
0E
1}
1D
#110000
1@
0=
0>
0!
10
1;
14
1<
0.
1,
1$
13
17
0*
1(
1y
0w
0v
1u
1t
1p
1m
1l
1i
0g
1e
0c
1a
1]
0Z
0x!
1l!
1\!
0T!
1L!
0D!
1=!
1o!
1k!
1_!
1O!
1K!
0G!
0C!
1<!
0<"
18"
16"
04"
02"
0*"
0$"
0""
0;"
17"
03"
1/"
0+"
0#"
1{!
0z!
1^!
1V!
0Y!
0r!
1u!
1q!
1b!
0R!
1U!
1Q!
0J!
0I!
1A!
1B!
1J!
0M!
1R!
0V!
1Y!
1r!
0v!
1y!
1Z!
0]!
0^!
1z!
0Z!
1]!
0N!
0/!
01!
15!
09!
12!
14!
0;!
1^!
0(!
0&!
1"!
0|
1%!
1#!
0z
13!
0:!
19!
02!
11!
1/!
1-!
0M
0K
1J
1H
1G
0C
0A
1$!
0{
1|
0%!
1&!
1(!
1*!
00!
03!
1;!
04!
1O
1M
1K
0J
1I
1C
0B
0'!
0$!
1z
0#!
14!
0L
0I
0H
1A
1#!
1H
#120000
0@
1.
07
0(
0+
1?
0:
1/
09
0"
1%
06
0y
1x
0s
0r
0p
0o
1h
1g
0d
0a
1^
0[
0t!
1h!
0\!
0P!
1D!
1@!
0c!
0_!
0W!
0S!
1?!
0<!
1<"
0:"
10"
1."
1*"
1("
09"
07"
11"
1+"
0%"
1}!
1v!
0y!
1j!
0^!
0R!
1F!
1f!
0i!
0b!
1Z!
0]!
1V!
0Y!
1E!
1>!
0A!
0B!
0F!
1I!
0Z!
1^!
0a!
0j!
0z!
1b!
0e!
0J!
1M!
1,!
12!
13!
05!
16!
1.!
01!
04!
17!
1:!
1N!
0f!
1+!
1%!
1$!
0"!
1!!
1)!
0&!
0#!
1~
1{
0;!
07!
14!
03!
0.!
0-!
1P
1N
0K
1J
1I
0H
0G
1F
1E
1B
0z
0~
1#!
0$!
0)!
0*!
0/!
15!
0O
0N
0I
1H
0E
0A
0(!
1"!
06!
10!
0M
1G
0!!
1'!
1L
0F
#130000
1@
17
1(
1+
1"
1>
00
0;
04
0<
0$
03
1)
08
0#
0-
11
05
1y
1w
0u
0t
0q
1p
0n
0m
0l
1j
0i
0f
1d
1b
1a
0]
0\
1[
1t!
0p!
0l!
1\!
1X!
1P!
0H!
0=!
1w!
0o!
0k!
0g!
1_!
0[!
0O!
0K!
1C!
1<!
0<"
08"
14"
12"
1,"
0*"
1&"
1$"
1""
0|!
1;"
15"
01"
0-"
0+"
1#"
1!"
0}!
0v!
1y!
1Z!
1J!
0M!
1z!
0u!
0q!
1j!
0m!
0b!
1e!
0N!
1F!
1f!
0n!
0r!
1v!
0y!
1N!
0Q!
0z!
1R!
0U!
1z!
1.!
00!
05!
17!
1;!
1/!
13!
0:!
0V!
1)!
0'!
0"!
1~
1z
1(!
1$!
0{
0;!
10!
1:!
09!
08!
16!
1N
1M
0L
1I
0G
1E
0B
1A
0z
1'!
1{
0|
0}
1!!
1;!
11!
1L
1F
0D
0C
1B
0A
1z
1&!
02!
1K
1A
0%!
0J
#140000
0@
0(
0+
0>
10
14
1<
1$
18
1#
01
0?
0/
19
16
1=
1!
0,
0'
0y
0x
0w
1v
1u
1r
1q
1o
1m
0j
1i
0h
0e
0d
0a
0`
1]
1\
1Z
1x!
1p!
1l!
0`!
0\!
0P!
0L!
0@!
1=!
0w!
1k!
1c!
1[!
1W!
1K!
1G!
0C!
0?!
0<!
1<"
1:"
18"
06"
04"
0."
0,"
0("
0$"
1|!
0;"
19"
13"
11"
1+"
1)"
0#"
0!"
0{!
1r!
1b!
0e!
0R!
1q!
0f!
1i!
0Z!
1]!
0J!
1M!
0F!
0E!
1F!
0I!
0N!
1Q!
0^!
1a!
0j!
1m!
0r!
1u!
1f!
0i!
1j!
0m!
0v!
1y!
1n!
0b!
1e!
1R!
1J!
0M!
0.!
0/!
03!
06!
01!
15!
19!
1N!
0Q!
0f!
1i!
0z!
0n!
0)!
0(!
0$!
0!!
0&!
1"!
1|
16!
09!
07!
04!
00!
1.!
0N
0M
0K
0I
1G
0F
1C
0j!
1m!
0R!
1!!
0|
0~
0#!
0'!
1)!
1/!
11!
05!
18!
0:!
17!
1N
0L
0H
1F
0E
0C
1n!
1(!
1&!
0"!
1}
0{
1~
08!
0;!
06!
10!
1M
1K
0G
1E
1D
0B
0}
0z
0!!
1'!
01!
07!
1L
0F
0D
0A
0&!
0~
18!
0K
0E
1}
1D
#150000
1+
1>
00
0$
08
0#
1?
1/
09
0=
0!
1,
0"
1;
13
0)
15
0.
1:
0%
1&
0i
1h
0g
1e
1d
0b
1_
0^
0]
0\
0[
0Z
1x
1w
0v
1t
1s
0r
0q
1n
1l
1o!
1g!
0[!
0W!
1S!
1O!
0G!
1C!
1?!
0x!
0t!
0p!
0l!
0h!
1d!
0X!
1P!
1L!
0D!
1@!
0=!
1;"
09"
17"
03"
01"
1-"
0'"
1%"
1#"
1!"
1}!
1{!
0:"
08"
16"
02"
00"
1."
1,"
0&"
0""
1^!
0a!
1V!
0J!
1z!
1v!
0y!
0n!
1f!
0]!
1U!
0N!
1Q!
1E!
0>!
0F!
1I!
1R!
0V!
1Y!
0^!
0z!
1b!
0e!
0f!
1Z!
1J!
0,!
00!
16!
08!
1:!
1;!
0/!
12!
14!
0+!
0'!
1!!
0}
1{
1z
0(!
1%!
1#!
15!
0;!
04!
02!
11!
0.!
0P
0M
0L
1J
1H
1F
0D
1B
1A
1"!
0z
0#!
0%!
1&!
0)!
1/!
13!
06!
0N
1K
0J
0H
1G
0A
1(!
1$!
0!!
1M
1I
0F
#160000
1$
0?
0/
1=
1!
1"
0;
03
0:
1%
0&
1(
0<
11
1'
07
1-
1*
0h
1f
1c
1a
1`
0_
1^
1]
1[
1Z
0x
1v
0u
0t
0s
0p
0l
1j
1w!
0o!
0_!
0S!
0O!
0K!
1G!
0?!
1x!
1t!
1l!
1h!
0d!
1`!
1\!
1T!
1H!
0@!
19"
05"
0/"
0+"
0)"
1'"
0%"
0#"
0}!
0{!
1:"
06"
14"
12"
10"
1*"
1""
0|!
1r!
0u!
0R!
1N!
0Q!
0v!
1y!
1n!
1j!
1f!
0i!
1^!
1M!
0E!
1F!
0I!
0N!
1Q!
0j!
1z!
1R!
0U!
1v!
0y!
0z!
1V!
0Y!
0R!
1U!
0J!
14!
16!
17!
18!
0:!
10!
01!
19!
0V!
1Y!
0Z!
1#!
1!!
1~
1}
0{
1'!
0&!
1|
1:!
11!
1;!
07!
00!
1.!
1L
0K
1H
1F
1E
1D
1C
0B
1Z!
1{
1&!
1z
0~
0'!
1)!
0/!
01!
12!
0;!
1N
0L
1K
0E
1B
1A
0(!
0&!
1%!
0z
03!
02!
0M
0K
1J
0A
0$!
0%!
13!
0J
0I
1$!
1I
