Somador/simulation/qsim/somador.msim.vcd
$comment
	File created using the following command:
		vcd file somador.msim.vcd -direction
$end
$date
	Fri Oct 26 20:58:08 2018
$end
$version
	ModelSim Version 10.5b
$end
$timescale
	1ps
$end

$scope module somador_vhd_vec_tst $end
$var wire 1 ! entrada [15] $end
$var wire 1 " entrada [14] $end
$var wire 1 # entrada [13] $end
$var wire 1 $ entrada [12] $end
$var wire 1 % entrada [11] $end
$var wire 1 & entrada [10] $end
$var wire 1 ' entrada [9] $end
$var wire 1 ( entrada [8] $end
$var wire 1 ) entrada [7] $end
$var wire 1 * entrada [6] $end
$var wire 1 + entrada [5] $end
$var wire 1 , entrada [4] $end
$var wire 1 - entrada [3] $end
$var wire 1 . entrada [2] $end
$var wire 1 / entrada [1] $end
$var wire 1 0 entrada [0] $end
$var wire 1 1 saida [15] $end
$var wire 1 2 saida [14] $end
$var wire 1 3 saida [13] $end
$var wire 1 4 saida [12] $end
$var wire 1 5 saida [11] $end
$var wire 1 6 saida [10] $end
$var wire 1 7 saida [9] $end
$var wire 1 8 saida [8] $end
$var wire 1 9 saida [7] $end
$var wire 1 : saida [6] $end
$var wire 1 ; saida [5] $end
$var wire 1 < saida [4] $end
$var wire 1 = saida [3] $end
$var wire 1 > saida [2] $end
$var wire 1 ? saida [1] $end
$var wire 1 @ saida [0] $end

$scope module i1 $end
$var wire 1 A gnd $end
$var wire 1 B vcc $end
$var wire 1 C unknown $end
$var wire 1 D devoe $end
$var wire 1 E devclrn $end
$var wire 1 F devpor $end
$var wire 1 G ww_devoe $end
$var wire 1 H ww_devclrn $end
$var wire 1 I ww_devpor $end
$var wire 1 J ww_entrada [15] $end
$var wire 1 K ww_entrada [14] $end
$var wire 1 L ww_entrada [13] $end
$var wire 1 M ww_entrada [12] $end
$var wire 1 N ww_entrada [11] $end
$var wire 1 O ww_entrada [10] $end
$var wire 1 P ww_entrada [9] $end
$var wire 1 Q ww_entrada [8] $end
$var wire 1 R ww_entrada [7] $end
$var wire 1 S ww_entrada [6] $end
$var wire 1 T ww_entrada [5] $end
$var wire 1 U ww_entrada [4] $end
$var wire 1 V ww_entrada [3] $end
$var wire 1 W ww_entrada [2] $end
$var wire 1 X ww_entrada [1] $end
$var wire 1 Y ww_entrada [0] $end
$var wire 1 Z ww_saida [15] $end
$var wire 1 [ ww_saida [14] $end
$var wire 1 \ ww_saida [13] $end
$var wire 1 ] ww_saida [12] $end
$var wire 1 ^ ww_saida [11] $end
$var wire 1 _ ww_saida [10] $end
$var wire 1 ` ww_saida [9] $end
$var wire 1 a ww_saida [8] $end
$var wire 1 b ww_saida [7] $end
$var wire 1 c ww_saida [6] $end
$var wire 1 d ww_saida [5] $end
$var wire 1 e ww_saida [4] $end
$var wire 1 f ww_saida [3] $end
$var wire 1 g ww_saida [2] $end
$var wire 1 h ww_saida [1] $end
$var wire 1 i ww_saida [0] $end
$var wire 1 j \saida[0]~output_o\ $end
$var wire 1 k \saida[1]~output_o\ $end
$var wire 1 l \saida[2]~output_o\ $end
$var wire 1 m \saida[3]~output_o\ $end
$var wire 1 n \saida[4]~output_o\ $end
$var wire 1 o \saida[5]~output_o\ $end
$var wire 1 p \saida[6]~output_o\ $end
$var wire 1 q \saida[7]~output_o\ $end
$var wire 1 r \saida[8]~output_o\ $end
$var wire 1 s \saida[9]~output_o\ $end
$var wire 1 t \saida[10]~output_o\ $end
$var wire 1 u \saida[11]~output_o\ $end
$var wire 1 v \saida[12]~output_o\ $end
$var wire 1 w \saida[13]~output_o\ $end
$var wire 1 x \saida[14]~output_o\ $end
$var wire 1 y \saida[15]~output_o\ $end
$var wire 1 z \entrada[0]~input_o\ $end
$var wire 1 { \entrada[1]~input_o\ $end
$var wire 1 | \entrada[2]~input_o\ $end
$var wire 1 } \entrada[3]~input_o\ $end
$var wire 1 ~ \Add0~1_sumout\ $end
$var wire 1 !! \entrada[4]~input_o\ $end
$var wire 1 "! \Add0~2\ $end
$var wire 1 #! \Add0~5_sumout\ $end
$var wire 1 $! \entrada[5]~input_o\ $end
$var wire 1 %! \Add0~6\ $end
$var wire 1 &! \Add0~9_sumout\ $end
$var wire 1 '! \entrada[6]~input_o\ $end
$var wire 1 (! \Add0~10\ $end
$var wire 1 )! \Add0~13_sumout\ $end
$var wire 1 *! \entrada[7]~input_o\ $end
$var wire 1 +! \Add0~14\ $end
$var wire 1 ,! \Add0~17_sumout\ $end
$var wire 1 -! \entrada[8]~input_o\ $end
$var wire 1 .! \Add0~18\ $end
$var wire 1 /! \Add0~21_sumout\ $end
$var wire 1 0! \entrada[9]~input_o\ $end
$var wire 1 1! \Add0~22\ $end
$var wire 1 2! \Add0~25_sumout\ $end
$var wire 1 3! \entrada[10]~input_o\ $end
$var wire 1 4! \Add0~26\ $end
$var wire 1 5! \Add0~29_sumout\ $end
$var wire 1 6! \entrada[11]~input_o\ $end
$var wire 1 7! \Add0~30\ $end
$var wire 1 8! \Add0~33_sumout\ $end
$var wire 1 9! \entrada[12]~input_o\ $end
$var wire 1 :! \Add0~34\ $end
$var wire 1 ;! \Add0~37_sumout\ $end
$var wire 1 <! \entrada[13]~input_o\ $end
$var wire 1 =! \Add0~38\ $end
$var wire 1 >! \Add0~41_sumout\ $end
$var wire 1 ?! \entrada[14]~input_o\ $end
$var wire 1 @! \Add0~42\ $end
$var wire 1 A! \Add0~45_sumout\ $end
$var wire 1 B! \entrada[15]~input_o\ $end
$var wire 1 C! \Add0~46\ $end
$var wire 1 D! \Add0~49_sumout\ $end
$var wire 1 E! \ALT_INV_entrada[15]~input_o\ $end
$var wire 1 F! \ALT_INV_entrada[14]~input_o\ $end
$var wire 1 G! \ALT_INV_entrada[13]~input_o\ $end
$var wire 1 H! \ALT_INV_entrada[12]~input_o\ $end
$var wire 1 I! \ALT_INV_entrada[11]~input_o\ $end
$var wire 1 J! \ALT_INV_entrada[10]~input_o\ $end
$var wire 1 K! \ALT_INV_entrada[9]~input_o\ $end
$var wire 1 L! \ALT_INV_entrada[8]~input_o\ $end
$var wire 1 M! \ALT_INV_entrada[7]~input_o\ $end
$var wire 1 N! \ALT_INV_entrada[6]~input_o\ $end
$var wire 1 O! \ALT_INV_entrada[5]~input_o\ $end
$var wire 1 P! \ALT_INV_entrada[4]~input_o\ $end
$var wire 1 Q! \ALT_INV_entrada[3]~input_o\ $end
$var wire 1 R! \ALT_INV_entrada[2]~input_o\ $end
$upscope $end
$upscope $end
$enddefinitions $end
#0
$dumpvars
0A
1B
xC
1D
1E
1F
1G
1H
1I
0j
0k
1l
0m
0n
0o
0p
0q
0r
0s
0t
0u
0v
0w
0x
0y
0z
0{
0|
0}
0~
0!!
0"!
0#!
0$!
0%!
0&!
0'!
0(!
0)!
0*!
0+!
0,!
0-!
0.!
0/!
00!
01!
02!
03!
04!
05!
06!
07!
08!
09!
0:!
0;!
0<!
0=!
0>!
0?!
0@!
0A!
0B!
0C!
0D!
1E!
1F!
1G!
1H!
1I!
1J!
1K!
1L!
1M!
1N!
1O!
1P!
1Q!
1R!
0!
0"
0#
0$
0%
0&
0'
0(
0)
0*
0+
0,
0-
0.
0/
00
01
02
03
04
05
06
07
08
09
0:
0;
0<
0=
1>
0?
0@
0J
0K
0L
0M
0N
0O
0P
0Q
0R
0S
0T
0U
0V
0W
0X
0Y
0Z
0[
0\
0]
0^
0_
0`
0a
0b
0c
0d
0e
0f
1g
0h
0i
$end
#5000
10
1Y
1z
1j
1i
1@
#10000
00
1/
0Y
1X
1{
0z
0j
1k
0i
1h
0@
1?
#15000
10
1Y
1z
1j
1i
1@
#20000
00
0/
1.
0Y
0X
1W
1|
0{
0z
0R!
1~
0j
0k
0l
0i
0h
0g
0@
0?
1m
0>
1f
1=
#25000
10
1Y
1z
1j
1i
1@
#30000
00
1/
0Y
1X
1{
0z
0j
1k
0i
1h
0@
1?
#35000
10
1Y
1z
1j
1i
1@
#40000
00
0/
0.
1-
0Y
0X
0W
1V
1}
0|
0{
0z
1R!
0Q!
0j
0k
1l
0i
0h
1g
0@
0?
1>
#45000
10
1Y
1z
1j
1i
1@
#50000
00
1/
0Y
1X
1{
0z
0j
1k
0i
1h
0@
1?
#55000
10
1Y
1z
1j
1i
1@
#60000
00
0/
1.
0Y
0X
1W
1|
0{
0z
0R!
0~
1"!
0j
0k
1#!
0l
0i
0h
0g
0@
0?
0m
0>
0f
1n
0=
1e
1<
#65000
10
1Y
1z
1j
1i
1@
#70000
00
1/
0Y
1X
1{
0z
0j
1k
0i
1h
0@
1?
#75000
10
1Y
1z
1j
1i
1@
#80000
00
0/
0.
0-
1,
0Y
0X
0W
0V
1U
1!!
0}
0|
0{
0z
1R!
1Q!
0P!
0#!
1%!
0"!
0j
0k
1#!
0%!
1&!
1l
0i
0h
0&!
1g
0@
0?
0n
1>
0e
1o
1n
0<
1d
1e
0o
1<
1;
0d
0;
#85000
10
1Y
1z
1j
1i
1@
#90000
00
1/
0Y
1X
1{
0z
0j
1k
0i
1h
0@
1?
#95000
10
1Y
1z
1j
1i
1@
#100000
00
0/
1.
0Y
0X
1W
1|
0{
0z
0R!
1~
0j
0k
0l
0i
0h
0g
0@
0?
1m
0>
1f
1=
#105000
10
1Y
1z
1j
1i
1@
#110000
00
1/
0Y
1X
1{
0z
0j
1k
0i
1h
0@
1?
#115000
10
1Y
1z
1j
1i
1@
#120000
00
0/
0.
1-
0Y
0X
0W
1V
1}
0|
0{
0z
1R!
0Q!
0j
0k
1l
0i
0h
1g
0@
0?
1>
#125000
10
1Y
1z
1j
1i
1@
#130000
00
1/
0Y
1X
1{
0z
0j
1k
0i
1h
0@
1?
#135000
10
1Y
1z
1j
1i
1@
#140000
00
0/
1.
0Y
0X
1W
1|
0{
0z
0R!
0~
1"!
0j
0k
0#!
1%!
0l
0i
0h
1&!
0g
0@
0?
0m
0>
0f
0n
0=
0e
1o
0<
1d
1;
#145000
10
1Y
1z
1j
1i
1@
#150000
00
1/
0Y
1X
1{
0z
0j
1k
0i
1h
0@
1?
#155000
10
1Y
1z
1j
1i
1@
#160000
00
0/
0.
0-
0,
1+
0Y
0X
0W
0V
0U
1T
1$!
0!!
0}
0|
0{
0z
1R!
1Q!
1P!
0O!
0&!
1(!
1#!
0%!
0"!
0j
0k
0#!
1&!
0(!
1)!
1l
0i
0h
0)!
1g
0@
0?
1n
0o
1>
1e
0d
1p
1o
0n
1<
0;
1c
1d
0e
0p
0<
1;
1:
0c
0:
#165000
10
1Y
1z
1j
1i
1@
#170000
00
1/
0Y
1X
1{
0z
0j
1k
0i
1h
0@
1?
#175000
10
1Y
1z
1j
1i
1@
#180000
00
0/
1.
0Y
0X
1W
1|
0{
0z
0R!
1~
0j
0k
0l
0i
0h
0g
0@
0?
1m
0>
1f
1=
#185000
10
1Y
1z
1j
1i
1@
#190000
00
1/
0Y
1X
1{
0z
0j
1k
0i
1h
0@
1?
#195000
10
1Y
1z
1j
1i
1@
#200000
00
0/
0.
1-
0Y
0X
0W
1V
1}
0|
0{
0z
1R!
0Q!
0j
0k
1l
0i
0h
1g
0@
0?
1>
#205000
10
1Y
1z
1j
1i
1@
#210000
00
1/
0Y
1X
1{
0z
0j
1k
0i
1h
0@
1?
#215000
10
1Y
1z
1j
1i
1@
#220000
00
0/
1.
0Y
0X
1W
1|
0{
0z
0R!
0~
1"!
0j
0k
1#!
0l
0i
0h
0g
0@
0?
0m
0>
0f
1n
0=
1e
1<
#225000
10
1Y
1z
1j
1i
1@
#230000
00
1/
0Y
1X
1{
0z
0j
1k
0i
1h
0@
1?
#235000
10
1Y
1z
1j
1i
1@
#240000
00
0/
0.
0-
1,
0Y
0X
0W
0V
1U
1!!
0}
0|
0{
0z
1R!
1Q!
0P!
0#!
1%!
0"!
0j
0k
1#!
0%!
0&!
1(!
1l
0i
0h
1)!
1&!
0(!
1g
0@
0?
0n
1>
0)!
0e
0o
1n
0<
0d
1e
1o
1p
1<
0;
1d
1c
0p
1;
1:
0c
0:
#245000
10
1Y
1z
1j
1i
1@
#250000
00
1/
0Y
1X
1{
0z
0j
1k
0i
1h
0@
1?
#255000
10
1Y
1z
1j
1i
1@
#260000
00
0/
1.
0Y
0X
1W
1|
0{
0z
0R!
1~
0j
0k
0l
0i
0h
0g
0@
0?
1m
0>
1f
1=
#265000
10
1Y
1z
1j
1i
1@
#270000
00
1/
0Y
1X
1{
0z
0j
1k
0i
1h
0@
1?
#275000
10
1Y
1z
1j
1i
1@
#280000
00
0/
0.
1-
0Y
0X
0W
1V
1}
0|
0{
0z
1R!
0Q!
0j
0k
1l
0i
0h
1g
0@
0?
1>
#285000
10
1Y
1z
1j
1i
1@
#290000
00
1/
0Y
1X
1{
0z
0j
1k
0i
1h
0@
1?
#295000
10
1Y
1z
1j
1i
1@
#300000
00
0/
1.
0Y
0X
1W
1|
0{
0z
0R!
0~
1"!
0j
0k
0#!
1%!
0l
0i
0h
0&!
1(!
0g
0@
0?
0m
0>
1)!
0f
0n
0=
0e
0o
0<
0d
1p
0;
1c
1:
#305000
10
1Y
1z
1j
1i
1@
#310000
00
1/
0Y
1X
1{
0z
0j
1k
0i
1h
0@
1?
#315000
10
1Y
1z
1j
1i
1@
#320000
00
0/
0.
0-
0,
0+
1*
0Y
0X
0W
0V
0U
0T
1S
1'!
0$!
0!!
0}
0|
0{
0z
1R!
1Q!
1P!
1O!
0N!
0)!
1+!
1&!
0(!
1#!
0%!
0"!
0j
0k
0#!
0&!
1)!
0+!
1,!
1l
0i
0h
0,!
1g
0@
0?
1n
1o
0p
1>
1e
1d
0c
1q
1p
0o
0n
1<
1;
0:
1b
1c
0d
0e
0q
0<
0;
1:
19
0b
09
#325000
10
1Y
1z
1j
1i
1@
#330000
00
1/
0Y
1X
1{
0z
0j
1k
0i
1h
0@
1?
#335000
10
1Y
1z
1j
1i
1@
#340000
00
0/
1.
0Y
0X
1W
1|
0{
0z
0R!
1~
0j
0k
0l
0i
0h
0g
0@
0?
1m
0>
1f
1=
#345000
10
1Y
1z
1j
1i
1@
#350000
00
1/
0Y
1X
1{
0z
0j
1k
0i
1h
0@
1?
#355000
10
1Y
1z
1j
1i
1@
#360000
00
0/
0.
1-
0Y
0X
0W
1V
1}
0|
0{
0z
1R!
0Q!
0j
0k
1l
0i
0h
1g
0@
0?
1>
#365000
10
1Y
1z
1j
1i
1@
#370000
00
1/
0Y
1X
1{
0z
0j
1k
0i
1h
0@
1?
#375000
10
1Y
1z
1j
1i
1@
#380000
00
0/
1.
0Y
0X
1W
1|
0{
0z
0R!
0~
1"!
0j
0k
1#!
0l
0i
0h
0g
0@
0?
0m
0>
0f
1n
0=
1e
1<
#385000
10
1Y
1z
1j
1i
1@
#390000
00
1/
0Y
1X
1{
0z
0j
1k
0i
1h
0@
1?
#395000
10
1Y
1z
1j
1i
1@
#400000
00
0/
0.
0-
1,
0Y
0X
0W
0V
1U
1!!
0}
0|
0{
0z
1R!
1Q!
0P!
0#!
1%!
0"!
0j
0k
1#!
0%!
1&!
1l
0i
0h
0&!
1g
0@
0?
0n
1>
0e
1o
1n
0<
1d
1e
0o
1<
1;
0d
0;
#405000
10
1Y
1z
1j
1i
1@
#410000
00
1/
0Y
1X
1{
0z
0j
1k
0i
1h
0@
1?
#415000
10
1Y
1z
1j
1i
1@
#420000
00
0/
1.
0Y
0X
1W
1|
0{
0z
0R!
1~
0j
0k
0l
0i
0h
0g
0@
0?
1m
0>
1f
1=
#425000
10
1Y
1z
1j
1i
1@
#430000
00
1/
0Y
1X
1{
0z
0j
1k
0i
1h
0@
1?
#435000
10
1Y
1z
1j
1i
1@
#440000
00
0/
0.
1-
0Y
0X
0W
1V
1}
0|
0{
0z
1R!
0Q!
0j
0k
1l
0i
0h
1g
0@
0?
1>
#445000
10
1Y
1z
1j
1i
1@
#450000
00
1/
0Y
1X
1{
0z
0j
1k
0i
1h
0@
1?
#455000
10
1Y
1z
1j
1i
1@
#460000
00
0/
1.
0Y
0X
1W
1|
0{
0z
0R!
0~
1"!
0j
0k
0#!
1%!
0l
0i
0h
1&!
0g
0@
0?
0m
0>
0f
0n
0=
0e
1o
0<
1d
1;
#465000
10
1Y
1z
1j
1i
1@
#470000
00
1/
0Y
1X
1{
0z
0j
1k
0i
1h
0@
1?
#475000
10
1Y
1z
1j
1i
1@
#480000
00
0/
0.
0-
0,
1+
0Y
0X
0W
0V
0U
1T
1$!
0!!
0}
0|
0{
0z
1R!
1Q!
1P!
0O!
0&!
1(!
1#!
0%!
0"!
0j
0k
0#!
1&!
0(!
0)!
1+!
1l
0i
0h
1,!
1)!
0+!
1g
0@
0?
1n
0o
1>
0,!
1e
0d
0p
1o
0n
1<
0;
0c
1d
0e
1p
1q
0<
1;
0:
1c
1b
0q
1:
19
0b
09
#485000
10
1Y
1z
1j
1i
1@
#490000
00
1/
0Y
1X
1{
0z
0j
1k
0i
1h
0@
1?
#495000
10
1Y
1z
1j
1i
1@
#500000
00
0/
1.
0Y
0X
1W
1|
0{
0z
0R!
1~
0j
0k
0l
0i
0h
0g
0@
0?
1m
0>
1f
1=
#505000
10
1Y
1z
1j
1i
1@
#510000
00
1/
0Y
1X
1{
0z
0j
1k
0i
1h
0@
1?
#515000
10
1Y
1z
1j
1i
1@
#520000
00
0/
0.
1-
0Y
0X
0W
1V
1}
0|
0{
0z
1R!
0Q!
0j
0k
1l
0i
0h
1g
0@
0?
1>
#525000
10
1Y
1z
1j
1i
1@
#530000
00
1/
0Y
1X
1{
0z
0j
1k
0i
1h
0@
1?
#535000
10
1Y
1z
1j
1i
1@
#540000
00
0/
1.
0Y
0X
1W
1|
0{
0z
0R!
0~
1"!
0j
0k
1#!
0l
0i
0h
0g
0@
0?
0m
0>
0f
1n
0=
1e
1<
#545000
10
1Y
1z
1j
1i
1@
#550000
00
1/
0Y
1X
1{
0z
0j
1k
0i
1h
0@
1?
#555000
10
1Y
1z
1j
1i
1@
#560000
00
0/
0.
0-
1,
0Y
0X
0W
0V
1U
1!!
0}
0|
0{
0z
1R!
1Q!
0P!
0#!
1%!
0"!
0j
0k
1#!
0%!
0&!
1(!
1l
0i
0h
0)!
1+!
1&!
0(!
1g
0@
0?
0n
1>
1)!
0+!
1,!
0e
0o
1n
0<
0,!
0d
1e
1o
0p
1<
0;
1d
0c
1q
1p
1;
0:
1b
1c
0q
1:
19
0b
09
#565000
10
1Y
1z
1j
1i
1@
#570000
00
1/
0Y
1X
1{
0z
0j
1k
0i
1h
0@
1?
#575000
10
1Y
1z
1j
1i
1@
#580000
00
0/
1.
0Y
0X
1W
1|
0{
0z
0R!
1~
0j
0k
0l
0i
0h
0g
0@
0?
1m
0>
1f
1=
#585000
10
1Y
1z
1j
1i
1@
#590000
00
1/
0Y
1X
1{
0z
0j
1k
0i
1h
0@
1?
#595000
10
1Y
1z
1j
1i
1@
#600000
00
0/
0.
1-
0Y
0X
0W
1V
1}
0|
0{
0z
1R!
0Q!
0j
0k
1l
0i
0h
1g
0@
0?
1>
#605000
10
1Y
1z
1j
1i
1@
#610000
00
1/
0Y
1X
1{
0z
0j
1k
0i
1h
0@
1?
#615000
10
1Y
1z
1j
1i
1@
#620000
00
0/
1.
0Y
0X
1W
1|
0{
0z
0R!
0~
1"!
0j
0k
0#!
1%!
0l
0i
0h
0&!
1(!
0g
0@
0?
0m
0>
0)!
1+!
0f
0n
0=
1,!
0e
0o
0<
0d
0p
0;
0c
1q
0:
1b
19
#625000
10
1Y
1z
1j
1i
1@
#630000
00
1/
0Y
1X
1{
0z
0j
1k
0i
1h
0@
1?
#635000
10
1Y
1z
1j
1i
1@
#640000
00
0/
0.
0-
0,
0+
0*
1)
0Y
0X
0W
0V
0U
0T
0S
1R
1*!
0'!
0$!
0!!
0}
0|
0{
0z
1R!
1Q!
1P!
1O!
1N!
0M!
0,!
1.!
1)!
0+!
1&!
0(!
1#!
0%!
0"!
0j
0k
0#!
0&!
0)!
1,!
0.!
1/!
1l
0i
0h
0/!
1g
0@
0?
1n
1o
1p
0q
1>
1e
1d
1c
0b
1r
1q
0p
0o
0n
1<
1;
1:
09
1a
1b
0c
0d
0e
0r
0<
0;
0:
19
18
0a
08
#645000
10
1Y
1z
1j
1i
1@
#650000
00
1/
0Y
1X
1{
0z
0j
1k
0i
1h
0@
1?
#655000
10
1Y
1z
1j
1i
1@
#660000
00
0/
1.
0Y
0X
1W
1|
0{
0z
0R!
1~
0j
0k
0l
0i
0h
0g
0@
0?
1m
0>
1f
1=
#665000
10
1Y
1z
1j
1i
1@
#670000
00
1/
0Y
1X
1{
0z
0j
1k
0i
1h
0@
1?
#675000
10
1Y
1z
1j
1i
1@
#680000
00
0/
0.
1-
0Y
0X
0W
1V
1}
0|
0{
0z
1R!
0Q!
0j
0k
1l
0i
0h
1g
0@
0?
1>
#685000
10
1Y
1z
1j
1i
1@
#690000
00
1/
0Y
1X
1{
0z
0j
1k
0i
1h
0@
1?
#695000
10
1Y
1z
1j
1i
1@
#700000
00
0/
1.
0Y
0X
1W
1|
0{
0z
0R!
0~
1"!
0j
0k
1#!
0l
0i
0h
0g
0@
0?
0m
0>
0f
1n
0=
1e
1<
#705000
10
1Y
1z
1j
1i
1@
#710000
00
1/
0Y
1X
1{
0z
0j
1k
0i
1h
0@
1?
#715000
10
1Y
1z
1j
1i
1@
#720000
00
0/
0.
0-
1,
0Y
0X
0W
0V
1U
1!!
0}
0|
0{
0z
1R!
1Q!
0P!
0#!
1%!
0"!
0j
0k
1#!
0%!
1&!
1l
0i
0h
0&!
1g
0@
0?
0n
1>
0e
1o
1n
0<
1d
1e
0o
1<
1;
0d
0;
#725000
10
1Y
1z
1j
1i
1@
#730000
00
1/
0Y
1X
1{
0z
0j
1k
0i
1h
0@
1?
#735000
10
1Y
1z
1j
1i
1@
#740000
00
0/
1.
0Y
0X
1W
1|
0{
0z
0R!
1~
0j
0k
0l
0i
0h
0g
0@
0?
1m
0>
1f
1=
#745000
10
1Y
1z
1j
1i
1@
#750000
00
1/
0Y
1X
1{
0z
0j
1k
0i
1h
0@
1?
#755000
10
1Y
1z
1j
1i
1@
#760000
00
0/
0.
1-
0Y
0X
0W
1V
1}
0|
0{
0z
1R!
0Q!
0j
0k
1l
0i
0h
1g
0@
0?
1>
#765000
10
1Y
1z
1j
1i
1@
#770000
00
1/
0Y
1X
1{
0z
0j
1k
0i
1h
0@
1?
#775000
10
1Y
1z
1j
1i
1@
#780000
00
0/
1.
0Y
0X
1W
1|
0{
0z
0R!
0~
1"!
0j
0k
0#!
1%!
0l
0i
0h
1&!
0g
0@
0?
0m
0>
0f
0n
0=
0e
1o
0<
1d
1;
#785000
10
1Y
1z
1j
1i
1@
#790000
00
1/
0Y
1X
1{
0z
0j
1k
0i
1h
0@
1?
#795000
10
1Y
1z
1j
1i
1@
#800000
00
0/
0.
0-
0,
1+
0Y
0X
0W
0V
0U
1T
1$!
0!!
0}
0|
0{
0z
1R!
1Q!
1P!
0O!
0&!
1(!
1#!
0%!
0"!
0j
0k
0#!
1&!
0(!
1)!
1l
0i
0h
0)!
1g
0@
0?
1n
0o
1>
1e
0d
1p
1o
0n
1<
0;
1c
1d
0e
0p
0<
1;
1:
0c
0:
#805000
10
1Y
1z
1j
1i
1@
#810000
00
1/
0Y
1X
1{
0z
0j
1k
0i
1h
0@
1?
#815000
10
1Y
1z
1j
1i
1@
#820000
00
0/
1.
0Y
0X
1W
1|
0{
0z
0R!
1~
0j
0k
0l
0i
0h
0g
0@
0?
1m
0>
1f
1=
#825000
10
1Y
1z
1j
1i
1@
#830000
00
1/
0Y
1X
1{
0z
0j
1k
0i
1h
0@
1?
#835000
10
1Y
1z
1j
1i
1@
#840000
00
0/
0.
1-
0Y
0X
0W
1V
1}
0|
0{
0z
1R!
0Q!
0j
0k
1l
0i
0h
1g
0@
0?
1>
#845000
10
1Y
1z
1j
1i
1@
#850000
00
1/
0Y
1X
1{
0z
0j
1k
0i
1h
0@
1?
#855000
10
1Y
1z
1j
1i
1@
#860000
00
0/
1.
0Y
0X
1W
1|
0{
0z
0R!
0~
1"!
0j
0k
1#!
0l
0i
0h
0g
0@
0?
0m
0>
0f
1n
0=
1e
1<
#865000
10
1Y
1z
1j
1i
1@
#870000
00
1/
0Y
1X
1{
0z
0j
1k
0i
1h
0@
1?
#875000
10
1Y
1z
1j
1i
1@
#880000
00
0/
0.
0-
1,
0Y
0X
0W
0V
1U
1!!
0}
0|
0{
0z
1R!
1Q!
0P!
0#!
1%!
0"!
0j
0k
1#!
0%!
0&!
1(!
1l
0i
0h
1)!
1&!
0(!
1g
0@
0?
0n
1>
0)!
0e
0o
1n
0<
0d
1e
1o
1p
1<
0;
1d
1c
0p
1;
1:
0c
0:
#885000
10
1Y
1z
1j
1i
1@
#890000
00
1/
0Y
1X
1{
0z
0j
1k
0i
1h
0@
1?
#895000
10
1Y
1z
1j
1i
1@
#900000
00
0/
1.
0Y
0X
1W
1|
0{
0z
0R!
1~
0j
0k
0l
0i
0h
0g
0@
0?
1m
0>
1f
1=
#905000
10
1Y
1z
1j
1i
1@
#910000
00
1/
0Y
1X
1{
0z
0j
1k
0i
1h
0@
1?
#915000
10
1Y
1z
1j
1i
1@
#920000
00
0/
0.
1-
0Y
0X
0W
1V
1}
0|
0{
0z
1R!
0Q!
0j
0k
1l
0i
0h
1g
0@
0?
1>
#925000
10
1Y
1z
1j
1i
1@
#930000
00
1/
0Y
1X
1{
0z
0j
1k
0i
1h
0@
1?
#935000
10
1Y
1z
1j
1i
1@
#940000
00
0/
1.
0Y
0X
1W
1|
0{
0z
0R!
0~
1"!
0j
0k
0#!
1%!
0l
0i
0h
0&!
1(!
0g
0@
0?
0m
0>
1)!
0f
0n
0=
0e
0o
0<
0d
1p
0;
1c
1:
#945000
10
1Y
1z
1j
1i
1@
#950000
00
1/
0Y
1X
1{
0z
0j
1k
0i
1h
0@
1?
#955000
10
1Y
1z
1j
1i
1@
#960000
00
0/
0.
0-
0,
0+
1*
0Y
0X
0W
0V
0U
0T
1S
1'!
0$!
0!!
0}
0|
0{
0z
1R!
1Q!
1P!
1O!
0N!
0)!
1+!
1&!
0(!
1#!
0%!
0"!
0j
0k
0#!
0&!
1)!
0+!
0,!
1.!
1l
0i
0h
1/!
1,!
0.!
1g
0@
0?
1n
1o
0p
1>
0/!
1e
1d
0c
0q
1p
0o
0n
1<
1;
0:
0b
1c
0d
0e
1q
1r
0<
0;
1:
09
1b
1a
0r
19
18
0a
08
#965000
10
1Y
1z
1j
1i
1@
#970000
00
1/
0Y
1X
1{
0z
0j
1k
0i
1h
0@
1?
#975000
10
1Y
1z
1j
1i
1@
#980000
00
0/
1.
0Y
0X
1W
1|
0{
0z
0R!
1~
0j
0k
0l
0i
0h
0g
0@
0?
1m
0>
1f
1=
#985000
10
1Y
1z
1j
1i
1@
#990000
00
1/
0Y
1X
1{
0z
0j
1k
0i
1h
0@
1?
#995000
10
1Y
1z
1j
1i
1@
