Registradores/RegistradorD/simulation/qsim/registerd.msim.vcd
$comment
	File created using the following command:
		vcd file registerd.msim.vcd -direction
$end
$date
	Fri Oct 26 20:00:46 2018
$end
$version
	ModelSim Version 10.5b
$end
$timescale
	1ps
$end

$scope module registerd_vhd_vec_tst $end
$var wire 1 ! clk $end
$var wire 1 " pin $end
$var wire 1 # pout $end

$scope module i1 $end
$var wire 1 $ gnd $end
$var wire 1 % vcc $end
$var wire 1 & unknown $end
$var wire 1 ' devoe $end
$var wire 1 ( devclrn $end
$var wire 1 ) devpor $end
$var wire 1 * ww_devoe $end
$var wire 1 + ww_devclrn $end
$var wire 1 , ww_devpor $end
$var wire 1 - ww_clk $end
$var wire 1 . ww_pin $end
$var wire 1 / ww_pout $end
$var wire 1 0 \pout~output_o\ $end
$var wire 1 1 \pin~input_o\ $end
$var wire 1 2 \clk~input_o\ $end
$var wire 1 3 \pout$latch~combout\ $end
$var wire 1 4 \ALT_INV_pout$latch~combout\ $end
$var wire 1 5 \ALT_INV_pin~input_o\ $end
$var wire 1 6 \ALT_INV_clk~input_o\ $end
$upscope $end
$upscope $end
$enddefinitions $end
#0
$dumpvars
0!
1"
x#
0$
1%
x&
1'
1(
1)
1*
1+
1,
0-
1.
x/
x0
11
02
x3
x4
05
16
$end
#20000
0"
0.
01
15
#25000
1"
1!
1.
1-
12
11
05
06
13
04
10
1/
1#
#30000
0"
0!
0.
0-
02
01
15
16
#40000
1"
1.
11
05
#50000
1!
1-
12
06
#55000
0"
0.
01
15
03
14
00
0/
0#
#60000
0!
0-
02
16
#75000
1!
1"
1-
1.
11
12
06
05
13
04
10
1/
1#
#80000
0!
0-
02
16
#85000
1!
0"
1-
0.
01
12
06
15
03
14
00
0/
0#
#90000
0!
1"
0-
1.
11
02
16
05
#115000
0"
0.
01
15
#125000
1"
1!
1.
1-
12
11
05
06
13
04
10
1/
1#
#130000
0"
0!
0.
0-
02
01
15
16
#135000
1"
1!
1.
1-
12
11
05
06
#140000
0"
0!
0.
0-
02
01
15
16
#145000
1"
1!
1.
1-
12
11
05
06
#150000
0!
0-
02
16
#155000
0"
0.
01
15
#160000
1"
1!
1.
1-
12
11
05
06
#165000
0!
0-
02
16
#175000
1!
0"
1-
0.
01
12
06
15
03
14
00
0/
0#
#180000
0!
1"
0-
1.
11
02
16
05
#185000
0"
0.
01
15
#190000
1"
1!
1.
1-
12
11
05
06
13
04
10
1/
1#
#195000
0"
0!
0.
0-
02
01
15
16
#200000
1!
1-
12
06
03
14
00
0/
0#
#205000
0!
0-
02
16
#210000
1!
1-
12
06
#215000
0!
0-
02
16
#220000
1"
1.
11
05
#225000
1!
1-
12
06
13
04
10
1/
1#
#235000
0"
0.
01
15
03
14
00
0/
0#
#245000
0!
0-
02
16
#250000
1!
1"
1-
1.
11
12
06
05
13
04
10
1/
1#
#255000
0"
0.
01
15
03
14
00
0/
0#
#260000
1"
0!
1.
0-
02
11
05
16
#265000
1!
1-
12
06
13
04
10
1/
1#
#270000
0"
0.
01
15
03
14
00
0/
0#
#275000
0!
0-
02
16
#280000
1"
1.
11
05
#290000
0"
0.
01
15
#295000
1!
1-
12
06
#315000
1"
1.
11
05
13
04
10
1/
1#
#320000
0"
0.
01
15
03
14
00
0/
0#
#325000
0!
0-
02
16
#340000
1!
1"
1-
1.
11
12
06
05
13
04
10
1/
1#
#345000
0!
0-
02
16
#350000
1!
0"
1-
0.
01
12
06
15
03
14
00
0/
0#
#355000
1"
1.
11
05
13
04
10
1/
1#
#360000
0"
0!
0.
0-
02
01
15
16
#365000
1!
1-
12
06
03
14
00
0/
0#
#380000
1"
1.
11
05
13
04
10
1/
1#
#385000
0"
0!
0.
0-
02
01
15
16
#390000
1"
1!
1.
1-
12
11
05
06
#395000
0"
0.
01
15
03
14
00
0/
0#
#405000
1"
1.
11
05
13
04
10
1/
1#
#410000
0!
0-
02
16
#415000
1!
1-
12
06
#420000
0!
0-
02
16
#430000
1!
0"
1-
0.
01
12
06
15
03
14
00
0/
0#
#435000
1"
1.
11
05
13
04
10
1/
1#
#440000
0"
0.
01
15
03
14
00
0/
0#
#445000
0!
0-
02
16
#450000
1!
1-
12
06
#460000
0!
0-
02
16
#465000
1!
1-
12
06
#470000
1"
1.
11
05
13
04
10
1/
1#
#475000
0"
0.
01
15
03
14
00
0/
0#
#480000
0!
0-
02
16
#485000
1"
1.
11
05
#500000
0"
1!
0.
1-
12
01
15
06
#505000
1"
1.
11
05
13
04
10
1/
1#
#510000
0!
0-
02
16
#515000
0"
0.
01
15
#520000
1!
1-
12
06
03
14
00
0/
0#
#525000
0!
0-
02
16
#530000
1"
1.
11
05
#540000
1!
1-
12
06
13
04
10
1/
1#
#545000
0"
0.
01
15
03
14
00
0/
0#
#550000
0!
0-
02
16
#555000
1"
1.
11
05
#565000
0"
0.
01
15
#570000
1"
1.
11
05
#575000
1!
1-
12
06
13
04
10
1/
1#
#580000
0"
0.
01
15
03
14
00
0/
0#
#585000
0!
0-
02
16
#590000
1"
1.
11
05
#600000
1!
1-
12
06
13
04
10
1/
1#
#610000
0"
0.
01
15
03
14
00
0/
0#
#615000
1"
0!
1.
0-
02
11
05
16
#620000
0"
0.
01
15
#625000
1"
1!
1.
1-
12
11
05
06
13
04
10
1/
1#
#635000
0"
0.
01
15
03
14
00
0/
0#
#640000
1"
0!
1.
0-
02
11
05
16
#645000
1!
1-
12
06
13
04
10
1/
1#
#650000
0!
0"
0-
0.
01
02
16
15
#655000
1!
1-
12
06
03
14
00
0/
0#
#665000
0!
1"
0-
1.
11
02
16
05
#670000
0"
0.
01
15
#675000
1!
1-
12
06
#690000
0!
0-
02
16
#695000
1"
1.
11
05
#700000
1!
1-
12
06
13
04
10
1/
1#
#705000
0!
0"
0-
0.
01
02
16
15
#710000
1!
1"
1-
1.
11
12
06
05
#715000
0"
0.
01
15
03
14
00
0/
0#
#720000
1"
0!
1.
0-
02
11
05
16
#725000
0"
1!
0.
1-
12
01
15
06
#735000
0!
0-
02
16
#740000
1!
1-
12
06
#750000
0!
0-
02
16
#765000
1!
1"
1-
1.
11
12
06
05
13
04
10
1/
1#
#770000
0!
0-
02
16
#775000
1!
0"
1-
0.
01
12
06
15
03
14
00
0/
0#
#780000
0!
1"
0-
1.
11
02
16
05
#785000
0"
0.
01
15
#790000
1!
1-
12
06
#795000
0!
1"
0-
1.
11
02
16
05
#805000
1!
1-
12
06
13
04
10
1/
1#
#810000
0"
0.
01
15
03
14
00
0/
0#
#815000
1"
0!
1.
0-
02
11
05
16
#820000
0"
0.
01
15
#825000
1"
1.
11
05
#835000
0"
0.
01
15
#840000
1!
1-
12
06
#845000
0!
1"
0-
1.
11
02
16
05
#850000
1!
1-
12
06
13
04
10
1/
1#
#855000
0!
0-
02
16
#865000
0"
0.
01
15
#870000
1"
1.
11
05
#880000
1!
1-
12
06
#885000
0!
0-
02
16
#890000
1!
1-
12
06
#895000
0"
0.
01
15
03
14
00
0/
0#
#900000
1"
1.
11
05
13
04
10
1/
1#
#905000
0!
0-
02
16
#910000
0"
0.
01
15
#915000
1!
1-
12
06
03
14
00
0/
0#
#920000
1"
1.
11
05
13
04
10
1/
1#
#925000
0!
0-
02
16
#930000
1!
0"
1-
0.
01
12
06
15
03
14
00
0/
0#
#935000
0!
1"
0-
1.
11
02
16
05
#945000
0"
0.
01
15
#950000
1!
1-
12
06
#960000
1"
1.
11
05
13
04
10
1/
1#
#965000
0"
0!
0.
0-
02
01
15
16
#975000
1"
1!
1.
1-
12
11
05
06
#980000
0!
0-
02
16
#985000
1!
0"
1-
0.
01
12
06
15
03
14
00
0/
0#
#990000
0!
0-
02
16
#995000
1"
1.
11
05
