ContSinc/simulation/qsim/contsinc.msim.vcd
$comment
	File created using the following command:
		vcd file contsinc.msim.vcd -direction
$end
$date
	Fri Oct 26 22:48:28 2018
$end
$version
	ModelSim Version 10.5b
$end
$timescale
	1ps
$end

$scope module contsinc_vhd_vec_tst $end
$var wire 1 ! clock $end
$var wire 1 " j $end
$var wire 1 # k $end
$var wire 1 $ z1 $end
$var wire 1 % z2 $end
$var wire 1 & z3 $end

$scope module i1 $end
$var wire 1 ' gnd $end
$var wire 1 ( vcc $end
$var wire 1 ) unknown $end
$var wire 1 * devoe $end
$var wire 1 + devclrn $end
$var wire 1 , devpor $end
$var wire 1 - ww_devoe $end
$var wire 1 . ww_devclrn $end
$var wire 1 / ww_devpor $end
$var wire 1 0 ww_j $end
$var wire 1 1 ww_k $end
$var wire 1 2 ww_clock $end
$var wire 1 3 ww_z1 $end
$var wire 1 4 ww_z2 $end
$var wire 1 5 ww_z3 $end
$var wire 1 6 \z1~output_o\ $end
$var wire 1 7 \z2~output_o\ $end
$var wire 1 8 \z3~output_o\ $end
$var wire 1 9 \clock~input_o\ $end
$var wire 1 : \j~input_o\ $end
$var wire 1 ; \k~input_o\ $end
$var wire 1 < \G0|Mux0~0_combout\ $end
$var wire 1 = \G0|state~q\ $end
$var wire 1 > \G1|state~0_combout\ $end
$var wire 1 ? \G1|state~q\ $end
$var wire 1 @ \G3|state~0_combout\ $end
$var wire 1 A \G3|state~q\ $end
$var wire 1 B \ALT_INV_k~input_o\ $end
$var wire 1 C \ALT_INV_j~input_o\ $end
$var wire 1 D \G3|ALT_INV_state~q\ $end
$var wire 1 E \G1|ALT_INV_state~q\ $end
$var wire 1 F \G0|ALT_INV_state~q\ $end
$upscope $end
$upscope $end
$enddefinitions $end
#0
$dumpvars
0!
1"
1#
0$
0%
0&
0'
1(
x)
1*
1+
1,
1-
1.
1/
10
11
02
03
04
05
06
07
08
09
1:
1;
1<
0=
0>
0?
0@
0A
0B
0C
1D
1E
1F
$end
#5000
1!
12
19
1=
0F
0<
1>
16
13
1$
#10000
0!
02
09
#15000
1!
12
19
0=
1?
0E
1F
1<
17
06
14
03
1%
0$
#20000
0!
02
09
#25000
1!
12
19
1=
0F
0<
0>
1@
16
13
1$
#30000
0!
02
09
#35000
1!
12
19
0=
0?
1A
0D
1E
1F
1<
18
07
06
15
04
03
1&
0%
0$
#40000
0!
02
09
#45000
1!
12
19
1=
0F
0<
1>
16
13
1$
#50000
0!
02
09
#55000
1!
12
19
0=
1?
0E
1F
1<
17
06
14
03
1%
0$
#60000
0!
02
09
#65000
1!
12
19
1=
0F
0<
0>
0@
16
13
1$
#70000
0!
02
09
#75000
1!
12
19
0=
0?
0A
1D
1E
1F
1<
08
07
06
05
04
03
0&
0%
0$
#80000
0!
02
09
#85000
1!
12
19
1=
0F
0<
1>
16
13
1$
#90000
0!
02
09
#95000
1!
12
19
0=
1?
0E
1F
1<
17
06
14
03
1%
0$
#100000
0!
02
09
#105000
1!
12
19
1=
0F
0<
0>
1@
16
13
1$
#110000
0!
02
09
#115000
1!
12
19
0=
0?
1A
0D
1E
1F
1<
18
07
06
15
04
03
1&
0%
0$
#120000
0!
02
09
#125000
1!
12
19
1=
0F
0<
1>
16
13
1$
#130000
0!
02
09
#135000
1!
12
19
0=
1?
0E
1F
1<
17
06
14
03
1%
0$
#140000
0!
02
09
#145000
1!
12
19
1=
0F
0<
0>
0@
16
13
1$
#150000
0!
02
09
#155000
1!
12
19
0=
0?
0A
1D
1E
1F
1<
08
07
06
05
04
03
0&
0%
0$
#160000
0!
02
09
#165000
1!
12
19
1=
0F
0<
1>
16
13
1$
#170000
0!
02
09
#175000
1!
12
19
0=
1?
0E
1F
1<
17
06
14
03
1%
0$
#180000
0!
02
09
#185000
1!
12
19
1=
0F
0<
0>
1@
16
13
1$
#190000
0!
02
09
#195000
1!
12
19
0=
0?
1A
0D
1E
1F
1<
18
07
06
15
04
03
1&
0%
0$
#200000
0!
02
09
#205000
1!
12
19
1=
0F
0<
1>
16
13
1$
#210000
0!
02
09
#215000
1!
12
19
0=
1?
0E
1F
1<
17
06
14
03
1%
0$
#220000
0!
02
09
#225000
1!
12
19
1=
0F
0<
0>
0@
16
13
1$
#230000
0!
02
09
#235000
1!
12
19
0=
0?
0A
1D
1E
1F
1<
08
07
06
05
04
03
0&
0%
0$
#240000
0!
02
09
#245000
1!
12
19
1=
0F
0<
1>
16
13
1$
#250000
0!
02
09
#255000
1!
12
19
0=
1?
0E
1F
1<
17
06
14
03
1%
0$
#260000
0!
02
09
#265000
1!
12
19
1=
0F
0<
0>
1@
16
13
1$
#270000
0!
02
09
#275000
1!
12
19
0=
0?
1A
0D
1E
1F
1<
18
07
06
15
04
03
1&
0%
0$
#280000
0!
02
09
#285000
1!
12
19
1=
0F
0<
1>
16
13
1$
#290000
0!
02
09
#295000
1!
12
19
0=
1?
0E
1F
1<
17
06
14
03
1%
0$
#300000
0!
02
09
#305000
1!
12
19
1=
0F
0<
0>
0@
16
13
1$
#310000
0!
02
09
#315000
1!
12
19
0=
0?
0A
1D
1E
1F
1<
08
07
06
05
04
03
0&
0%
0$
#320000
0!
02
09
#325000
1!
12
19
1=
0F
0<
1>
16
13
1$
#330000
0!
02
09
#335000
1!
12
19
0=
1?
0E
1F
1<
17
06
14
03
1%
0$
#340000
0!
02
09
#345000
1!
12
19
1=
0F
0<
0>
1@
16
13
1$
#350000
0!
02
09
#355000
1!
12
19
0=
0?
1A
0D
1E
1F
1<
18
07
06
15
04
03
1&
0%
0$
#360000
0!
02
09
#365000
1!
12
19
1=
0F
0<
1>
16
13
1$
#370000
0!
02
09
#375000
1!
12
19
0=
1?
0E
1F
1<
17
06
14
03
1%
0$
#380000
0!
02
09
#385000
1!
12
19
1=
0F
0<
0>
0@
16
13
1$
#390000
0!
02
09
#395000
1!
12
19
0=
0?
0A
1D
1E
1F
1<
08
07
06
05
04
03
0&
0%
0$
#400000
0!
02
09
#405000
1!
12
19
1=
0F
0<
1>
16
13
1$
#410000
0!
02
09
#415000
1!
12
19
0=
1?
0E
1F
1<
17
06
14
03
1%
0$
#420000
0!
02
09
#425000
1!
12
19
1=
0F
0<
0>
1@
16
13
1$
#430000
0!
02
09
#435000
1!
12
19
0=
0?
1A
0D
1E
1F
1<
18
07
06
15
04
03
1&
0%
0$
#440000
0!
02
09
#445000
1!
12
19
1=
0F
0<
1>
16
13
1$
#450000
0!
02
09
#455000
1!
12
19
0=
1?
0E
1F
1<
17
06
14
03
1%
0$
#460000
0!
02
09
#465000
1!
12
19
1=
0F
0<
0>
0@
16
13
1$
#470000
0!
02
09
#475000
1!
12
19
0=
0?
0A
1D
1E
1F
1<
08
07
06
05
04
03
0&
0%
0$
#480000
0!
02
09
#485000
1!
12
19
1=
0F
0<
1>
16
13
1$
#490000
0!
02
09
#495000
1!
12
19
0=
1?
0E
1F
1<
17
06
14
03
1%
0$
#500000
0!
02
09
#505000
1!
12
19
1=
0F
0<
0>
1@
16
13
1$
#510000
0!
02
09
#515000
1!
12
19
0=
0?
1A
0D
1E
1F
1<
18
07
06
15
04
03
1&
0%
0$
#520000
0!
02
09
#525000
1!
12
19
1=
0F
0<
1>
16
13
1$
#530000
0!
02
09
#535000
1!
12
19
0=
1?
0E
1F
1<
17
06
14
03
1%
0$
#540000
0!
02
09
#545000
1!
12
19
1=
0F
0<
0>
0@
16
13
1$
#550000
0!
02
09
#555000
1!
12
19
0=
0?
0A
1D
1E
1F
1<
08
07
06
05
04
03
0&
0%
0$
#560000
0!
02
09
#565000
1!
12
19
1=
0F
0<
1>
16
13
1$
#570000
0!
02
09
#575000
1!
12
19
0=
1?
0E
1F
1<
17
06
14
03
1%
0$
#580000
0!
02
09
#585000
1!
12
19
1=
0F
0<
0>
1@
16
13
1$
#590000
0!
02
09
#595000
1!
12
19
0=
0?
1A
0D
1E
1F
1<
18
07
06
15
04
03
1&
0%
0$
#600000
0!
02
09
#605000
1!
12
19
1=
0F
0<
1>
16
13
1$
#610000
0!
02
09
#615000
1!
12
19
0=
1?
0E
1F
1<
17
06
14
03
1%
0$
#620000
0!
02
09
#625000
1!
12
19
1=
0F
0<
0>
0@
16
13
1$
#630000
0!
02
09
#635000
1!
12
19
0=
0?
0A
1D
1E
1F
1<
08
07
06
05
04
03
0&
0%
0$
#640000
0!
02
09
#645000
1!
12
19
1=
0F
0<
1>
16
13
1$
#650000
0!
02
09
#655000
1!
12
19
0=
1?
0E
1F
1<
17
06
14
03
1%
0$
#660000
0!
02
09
#665000
1!
12
19
1=
0F
0<
0>
1@
16
13
1$
#670000
0!
02
09
#675000
1!
12
19
0=
0?
1A
0D
1E
1F
1<
18
07
06
15
04
03
1&
0%
0$
#680000
0!
02
09
#685000
1!
12
19
1=
0F
0<
1>
16
13
1$
#690000
0!
02
09
#695000
1!
12
19
0=
1?
0E
1F
1<
17
06
14
03
1%
0$
#700000
0!
02
09
#705000
1!
12
19
1=
0F
0<
0>
0@
16
13
1$
#710000
0!
02
09
#715000
1!
12
19
0=
0?
0A
1D
1E
1F
1<
08
07
06
05
04
03
0&
0%
0$
#720000
0!
02
09
#725000
1!
12
19
1=
0F
0<
1>
16
13
1$
#730000
0!
02
09
#735000
1!
12
19
0=
1?
0E
1F
1<
17
06
14
03
1%
0$
#740000
0!
02
09
#745000
1!
12
19
1=
0F
0<
0>
1@
16
13
1$
#750000
0!
02
09
#755000
1!
12
19
0=
0?
1A
0D
1E
1F
1<
18
07
06
15
04
03
1&
0%
0$
#760000
0!
02
09
#765000
1!
12
19
1=
0F
0<
1>
16
13
1$
#770000
0!
02
09
#775000
1!
12
19
0=
1?
0E
1F
1<
17
06
14
03
1%
0$
#780000
0!
02
09
#785000
1!
12
19
1=
0F
0<
0>
0@
16
13
1$
#790000
0!
02
09
#795000
1!
12
19
0=
0?
0A
1D
1E
1F
1<
08
07
06
05
04
03
0&
0%
0$
#800000
0!
02
09
#805000
1!
12
19
1=
0F
0<
1>
16
13
1$
#810000
0!
02
09
#815000
1!
12
19
0=
1?
0E
1F
1<
17
06
14
03
1%
0$
#820000
0!
02
09
#825000
1!
12
19
1=
0F
0<
0>
1@
16
13
1$
#830000
0!
02
09
#835000
1!
12
19
0=
0?
1A
0D
1E
1F
1<
18
07
06
15
04
03
1&
0%
0$
#840000
0!
02
09
#845000
1!
12
19
1=
0F
0<
1>
16
13
1$
#850000
0!
02
09
#855000
1!
12
19
0=
1?
0E
1F
1<
17
06
14
03
1%
0$
#860000
0!
02
09
#865000
1!
12
19
1=
0F
0<
0>
0@
16
13
1$
#870000
0!
02
09
#875000
1!
12
19
0=
0?
0A
1D
1E
1F
1<
08
07
06
05
04
03
0&
0%
0$
#880000
0!
02
09
#885000
1!
12
19
1=
0F
0<
1>
16
13
1$
#890000
0!
02
09
#895000
1!
12
19
0=
1?
0E
1F
1<
17
06
14
03
1%
0$
#900000
0!
02
09
#905000
1!
12
19
1=
0F
0<
0>
1@
16
13
1$
#910000
0!
02
09
#915000
1!
12
19
0=
0?
1A
0D
1E
1F
1<
18
07
06
15
04
03
1&
0%
0$
#920000
0!
02
09
#925000
1!
12
19
1=
0F
0<
1>
16
13
1$
#930000
0!
02
09
#935000
1!
12
19
0=
1?
0E
1F
1<
17
06
14
03
1%
0$
#940000
0!
02
09
#945000
1!
12
19
1=
0F
0<
0>
0@
16
13
1$
#950000
0!
02
09
#955000
1!
12
19
0=
0?
0A
1D
1E
1F
1<
08
07
06
05
04
03
0&
0%
0$
#960000
0!
02
09
#965000
1!
12
19
1=
0F
0<
1>
16
13
1$
#970000
0!
02
09
#975000
1!
12
19
0=
1?
0E
1F
1<
17
06
14
03
1%
0$
#980000
0!
02
09
#985000
1!
12
19
1=
0F
0<
0>
1@
16
13
1$
#990000
0!
02
09
#995000
1!
12
19
0=
0?
1A
0D
1E
1F
1<
18
07
06
15
04
03
1&
0%
0$
